<?xml version="1.0" encoding="UTF-8" standalone="no"?>
<svg
   xmlns:dc="http://purl.org/dc/elements/1.1/"
   xmlns:cc="http://creativecommons.org/ns#"
   xmlns:rdf="http://www.w3.org/1999/02/22-rdf-syntax-ns#"
   xmlns:svg="http://www.w3.org/2000/svg"
   xmlns="http://www.w3.org/2000/svg"
   xmlns:sodipodi="http://sodipodi.sourceforge.net/DTD/sodipodi-0.dtd"
   xmlns:inkscape="http://www.inkscape.org/namespaces/inkscape"
   width="210mm"
   height="297mm"
   viewBox="0 0 210 297"
   version="1.1"
   id="svg8"
   inkscape:version="1.0.2 (e86c870879, 2021-01-15, custom)"
   sodipodi:docname="Diagrama en bloqus.svg"
   inkscape:export-filename="C:\Users\ianle.DESKTOP-IN895BI\Desktop\TECNICAS DIGITALES 3\PROYECTO\GENERADOR DE FUNCIONES\Diagrama en bloqus.png"
   inkscape:export-xdpi="94"
   inkscape:export-ydpi="94">
  <defs
     id="defs2">
    <marker
       style="overflow:visible"
       id="marker11926"
       refX="0"
       refY="0"
       orient="auto"
       inkscape:stockid="Arrow2Mend"
       inkscape:isstock="true">
      <path
         transform="scale(-0.6)"
         d="M 8.7185878,4.0337352 -2.2072895,0.01601326 8.7185884,-4.0017078 c -1.7454984,2.3720609 -1.7354408,5.6174519 -6e-7,8.035443 z"
         style="fill:#000000;fill-opacity:1;fill-rule:evenodd;stroke:#000000;stroke-width:0.625;stroke-linejoin:round;stroke-opacity:1"
         id="path11924" />
    </marker>
    <marker
       style="overflow:visible;"
       id="marker9178"
       refX="0.0"
       refY="0.0"
       orient="auto"
       inkscape:stockid="Arrow2Mend"
       inkscape:isstock="true">
      <path
         transform="scale(0.6) rotate(180) translate(0,0)"
         d="M 8.7185878,4.0337352 L -2.2072895,0.016013256 L 8.7185884,-4.0017078 C 6.9730900,-1.6296469 6.9831476,1.6157441 8.7185878,4.0337352 z "
         style="fill-rule:evenodd;stroke-width:0.625;stroke-linejoin:round;stroke:#000000;stroke-opacity:1;fill:#000000;fill-opacity:1"
         id="path9176" />
    </marker>
    <marker
       style="overflow:visible"
       id="marker8854"
       refX="0"
       refY="0"
       orient="auto"
       inkscape:stockid="Arrow2Mend"
       inkscape:isstock="true"
       inkscape:collect="always">
      <path
         transform="scale(-0.6)"
         d="M 8.7185878,4.0337352 -2.2072895,0.01601326 8.7185884,-4.0017078 c -1.7454984,2.3720609 -1.7354408,5.6174519 -6e-7,8.035443 z"
         style="fill:#000000;fill-opacity:1;fill-rule:evenodd;stroke:#000000;stroke-width:0.625;stroke-linejoin:round;stroke-opacity:1"
         id="path8852" />
    </marker>
    <marker
       style="overflow:visible"
       id="marker8562"
       refX="0"
       refY="0"
       orient="auto"
       inkscape:stockid="Arrow1Lend"
       inkscape:isstock="true">
      <path
         transform="matrix(-0.8,0,0,-0.8,-10,0)"
         style="fill:#000000;fill-opacity:1;fill-rule:evenodd;stroke:#000000;stroke-width:1pt;stroke-opacity:1"
         d="M 0,0 5,-5 -12.5,0 5,5 Z"
         id="path8560" />
    </marker>
    <marker
       style="overflow:visible;"
       id="Arrow2Mend"
       refX="0.0"
       refY="0.0"
       orient="auto"
       inkscape:stockid="Arrow2Mend"
       inkscape:isstock="true"
       inkscape:collect="always">
      <path
         transform="scale(0.6) rotate(180) translate(0,0)"
         d="M 8.7185878,4.0337352 L -2.2072895,0.016013256 L 8.7185884,-4.0017078 C 6.9730900,-1.6296469 6.9831476,1.6157441 8.7185878,4.0337352 z "
         style="fill-rule:evenodd;stroke-width:0.625;stroke-linejoin:round;stroke:#000000;stroke-opacity:1;fill:#000000;fill-opacity:1"
         id="path864" />
    </marker>
    <marker
       style="overflow:visible;"
       id="Arrow2Lend"
       refX="0.0"
       refY="0.0"
       orient="auto"
       inkscape:stockid="Arrow2Lend"
       inkscape:isstock="true">
      <path
         transform="scale(1.1) rotate(180) translate(1,0)"
         d="M 8.7185878,4.0337352 L -2.2072895,0.016013256 L 8.7185884,-4.0017078 C 6.9730900,-1.6296469 6.9831476,1.6157441 8.7185878,4.0337352 z "
         style="fill-rule:evenodd;stroke-width:0.625;stroke-linejoin:round;stroke:#000000;stroke-opacity:1;fill:#000000;fill-opacity:1"
         id="path858" />
    </marker>
    <marker
       style="overflow:visible;"
       id="marker1145"
       refX="0.0"
       refY="0.0"
       orient="auto"
       inkscape:stockid="Arrow1Lend"
       inkscape:isstock="true">
      <path
         transform="scale(0.8) rotate(180) translate(12.5,0)"
         style="fill-rule:evenodd;stroke:#000000;stroke-width:1pt;stroke-opacity:1;fill:#000000;fill-opacity:1"
         d="M 0.0,0.0 L 5.0,-5.0 L -12.5,0.0 L 5.0,5.0 L 0.0,0.0 z "
         id="path1143" />
    </marker>
    <marker
       style="overflow:visible;"
       id="Arrow1Lend"
       refX="0.0"
       refY="0.0"
       orient="auto"
       inkscape:stockid="Arrow1Lend"
       inkscape:isstock="true">
      <path
         transform="scale(0.8) rotate(180) translate(12.5,0)"
         style="fill-rule:evenodd;stroke:#000000;stroke-width:1pt;stroke-opacity:1;fill:#000000;fill-opacity:1"
         d="M 0.0,0.0 L 5.0,-5.0 L -12.5,0.0 L 5.0,5.0 L 0.0,0.0 z "
         id="path840" />
    </marker>
    <marker
       style="overflow:visible"
       id="marker1145-4"
       refX="0"
       refY="0"
       orient="auto"
       inkscape:stockid="Arrow1Lend"
       inkscape:isstock="true"
       inkscape:collect="always">
      <path
         transform="matrix(-0.8,0,0,-0.8,-10,0)"
         style="fill:#000000;fill-opacity:1;fill-rule:evenodd;stroke:#000000;stroke-width:1pt;stroke-opacity:1"
         d="M 0,0 5,-5 -12.5,0 5,5 Z"
         id="path1143-1" />
    </marker>
    <marker
       style="overflow:visible"
       id="Arrow2Mend-7"
       refX="0"
       refY="0"
       orient="auto"
       inkscape:stockid="Arrow2Mend"
       inkscape:isstock="true"
       inkscape:collect="always">
      <path
         transform="scale(-0.6)"
         d="M 8.7185878,4.0337352 -2.2072895,0.01601326 8.7185884,-4.0017078 c -1.7454984,2.3720609 -1.7354408,5.6174519 -6e-7,8.035443 z"
         style="fill:#000000;fill-opacity:1;fill-rule:evenodd;stroke:#000000;stroke-width:0.625;stroke-linejoin:round;stroke-opacity:1"
         id="path864-5" />
    </marker>
    <marker
       style="overflow:visible"
       id="marker1145-4-5"
       refX="0"
       refY="0"
       orient="auto"
       inkscape:stockid="Arrow1Lend"
       inkscape:isstock="true">
      <path
         transform="matrix(-0.8,0,0,-0.8,-10,0)"
         style="fill:#000000;fill-opacity:1;fill-rule:evenodd;stroke:#000000;stroke-width:1pt;stroke-opacity:1"
         d="M 0,0 5,-5 -12.5,0 5,5 Z"
         id="path1143-1-7" />
    </marker>
    <marker
       style="overflow:visible"
       id="Arrow2Mend-7-7"
       refX="0"
       refY="0"
       orient="auto"
       inkscape:stockid="Arrow2Mend"
       inkscape:isstock="true">
      <path
         transform="scale(-0.6)"
         d="M 8.7185878,4.0337352 -2.2072895,0.01601326 8.7185884,-4.0017078 c -1.7454984,2.3720609 -1.7354408,5.6174519 -6e-7,8.035443 z"
         style="fill:#000000;fill-opacity:1;fill-rule:evenodd;stroke:#000000;stroke-width:0.625;stroke-linejoin:round;stroke-opacity:1"
         id="path864-5-1" />
    </marker>
    <marker
       style="overflow:visible"
       id="marker1145-4-7"
       refX="0"
       refY="0"
       orient="auto"
       inkscape:stockid="Arrow1Lend"
       inkscape:isstock="true">
      <path
         transform="matrix(-0.8,0,0,-0.8,-10,0)"
         style="fill:#000000;fill-opacity:1;fill-rule:evenodd;stroke:#000000;stroke-width:1pt;stroke-opacity:1"
         d="M 0,0 5,-5 -12.5,0 5,5 Z"
         id="path1143-1-8" />
    </marker>
    <marker
       style="overflow:visible"
       id="Arrow2Mend-7-5"
       refX="0"
       refY="0"
       orient="auto"
       inkscape:stockid="Arrow2Mend"
       inkscape:isstock="true">
      <path
         transform="scale(-0.6)"
         d="M 8.7185878,4.0337352 -2.2072895,0.01601326 8.7185884,-4.0017078 c -1.7454984,2.3720609 -1.7354408,5.6174519 -6e-7,8.035443 z"
         style="fill:#000000;fill-opacity:1;fill-rule:evenodd;stroke:#000000;stroke-width:0.625;stroke-linejoin:round;stroke-opacity:1"
         id="path864-5-7" />
    </marker>
    <marker
       style="overflow:visible"
       id="marker1145-4-9"
       refX="0"
       refY="0"
       orient="auto"
       inkscape:stockid="Arrow1Lend"
       inkscape:isstock="true">
      <path
         transform="matrix(-0.8,0,0,-0.8,-10,0)"
         style="fill:#000000;fill-opacity:1;fill-rule:evenodd;stroke:#000000;stroke-width:1pt;stroke-opacity:1"
         d="M 0,0 5,-5 -12.5,0 5,5 Z"
         id="path1143-1-5" />
    </marker>
    <marker
       style="overflow:visible"
       id="Arrow2Mend-7-2"
       refX="0"
       refY="0"
       orient="auto"
       inkscape:stockid="Arrow2Mend"
       inkscape:isstock="true">
      <path
         transform="scale(-0.6)"
         d="M 8.7185878,4.0337352 -2.2072895,0.01601326 8.7185884,-4.0017078 c -1.7454984,2.3720609 -1.7354408,5.6174519 -6e-7,8.035443 z"
         style="fill:#000000;fill-opacity:1;fill-rule:evenodd;stroke:#000000;stroke-width:0.625;stroke-linejoin:round;stroke-opacity:1"
         id="path864-5-76" />
    </marker>
    <marker
       style="overflow:visible"
       id="marker1145-4-9-5"
       refX="0"
       refY="0"
       orient="auto"
       inkscape:stockid="Arrow1Lend"
       inkscape:isstock="true">
      <path
         transform="matrix(-0.8,0,0,-0.8,-10,0)"
         style="fill:#000000;fill-opacity:1;fill-rule:evenodd;stroke:#000000;stroke-width:1pt;stroke-opacity:1"
         d="M 0,0 5,-5 -12.5,0 5,5 Z"
         id="path1143-1-5-2" />
    </marker>
    <marker
       style="overflow:visible"
       id="Arrow2Mend-7-2-4"
       refX="0"
       refY="0"
       orient="auto"
       inkscape:stockid="Arrow2Mend"
       inkscape:isstock="true">
      <path
         transform="scale(-0.6)"
         d="M 8.7185878,4.0337352 -2.2072895,0.01601326 8.7185884,-4.0017078 c -1.7454984,2.3720609 -1.7354408,5.6174519 -6e-7,8.035443 z"
         style="fill:#000000;fill-opacity:1;fill-rule:evenodd;stroke:#000000;stroke-width:0.625;stroke-linejoin:round;stroke-opacity:1"
         id="path864-5-76-5" />
    </marker>
    <marker
       style="overflow:visible"
       id="marker1145-4-6"
       refX="0"
       refY="0"
       orient="auto"
       inkscape:stockid="Arrow1Lend"
       inkscape:isstock="true">
      <path
         transform="matrix(-0.8,0,0,-0.8,-10,0)"
         style="fill:#000000;fill-opacity:1;fill-rule:evenodd;stroke:#000000;stroke-width:1pt;stroke-opacity:1"
         d="M 0,0 5,-5 -12.5,0 5,5 Z"
         id="path1143-1-50" />
    </marker>
    <marker
       style="overflow:visible"
       id="Arrow2Mend-7-9"
       refX="0"
       refY="0"
       orient="auto"
       inkscape:stockid="Arrow2Mend"
       inkscape:isstock="true">
      <path
         transform="scale(-0.6)"
         d="M 8.7185878,4.0337352 -2.2072895,0.01601326 8.7185884,-4.0017078 c -1.7454984,2.3720609 -1.7354408,5.6174519 -6e-7,8.035443 z"
         style="fill:#000000;fill-opacity:1;fill-rule:evenodd;stroke:#000000;stroke-width:0.625;stroke-linejoin:round;stroke-opacity:1"
         id="path864-5-6" />
    </marker>
    <marker
       style="overflow:visible"
       id="marker1145-4-4"
       refX="0"
       refY="0"
       orient="auto"
       inkscape:stockid="Arrow1Lend"
       inkscape:isstock="true">
      <path
         transform="matrix(-0.8,0,0,-0.8,-10,0)"
         style="fill:#000000;fill-opacity:1;fill-rule:evenodd;stroke:#000000;stroke-width:1pt;stroke-opacity:1"
         d="M 0,0 5,-5 -12.5,0 5,5 Z"
         id="path1143-1-83" />
    </marker>
    <marker
       style="overflow:visible"
       id="Arrow2Mend-7-6"
       refX="0"
       refY="0"
       orient="auto"
       inkscape:stockid="Arrow2Mend"
       inkscape:isstock="true">
      <path
         transform="scale(-0.6)"
         d="M 8.7185878,4.0337352 -2.2072895,0.01601326 8.7185884,-4.0017078 c -1.7454984,2.3720609 -1.7354408,5.6174519 -6e-7,8.035443 z"
         style="fill:#000000;fill-opacity:1;fill-rule:evenodd;stroke:#000000;stroke-width:0.625;stroke-linejoin:round;stroke-opacity:1"
         id="path864-5-8" />
    </marker>
    <marker
       style="overflow:visible"
       id="marker1145-4-6-5"
       refX="0"
       refY="0"
       orient="auto"
       inkscape:stockid="Arrow1Lend"
       inkscape:isstock="true">
      <path
         transform="matrix(-0.8,0,0,-0.8,-10,0)"
         style="fill:#000000;fill-opacity:1;fill-rule:evenodd;stroke:#000000;stroke-width:1pt;stroke-opacity:1"
         d="M 0,0 5,-5 -12.5,0 5,5 Z"
         id="path1143-1-50-8" />
    </marker>
    <marker
       style="overflow:visible"
       id="Arrow2Mend-7-9-3"
       refX="0"
       refY="0"
       orient="auto"
       inkscape:stockid="Arrow2Mend"
       inkscape:isstock="true">
      <path
         transform="scale(-0.6)"
         d="M 8.7185878,4.0337352 -2.2072895,0.01601326 8.7185884,-4.0017078 c -1.7454984,2.3720609 -1.7354408,5.6174519 -6e-7,8.035443 z"
         style="fill:#000000;fill-opacity:1;fill-rule:evenodd;stroke:#000000;stroke-width:0.625;stroke-linejoin:round;stroke-opacity:1"
         id="path864-5-6-1" />
    </marker>
    <marker
       style="overflow:visible"
       id="marker1145-4-6-5-8"
       refX="0"
       refY="0"
       orient="auto"
       inkscape:stockid="Arrow1Lend"
       inkscape:isstock="true">
      <path
         transform="matrix(-0.8,0,0,-0.8,-10,0)"
         style="fill:#000000;fill-opacity:1;fill-rule:evenodd;stroke:#000000;stroke-width:1pt;stroke-opacity:1"
         d="M 0,0 5,-5 -12.5,0 5,5 Z"
         id="path1143-1-50-8-3" />
    </marker>
    <marker
       style="overflow:visible"
       id="Arrow2Mend-7-9-3-7"
       refX="0"
       refY="0"
       orient="auto"
       inkscape:stockid="Arrow2Mend"
       inkscape:isstock="true">
      <path
         transform="scale(-0.6)"
         d="M 8.7185878,4.0337352 -2.2072895,0.01601326 8.7185884,-4.0017078 c -1.7454984,2.3720609 -1.7354408,5.6174519 -6e-7,8.035443 z"
         style="fill:#000000;fill-opacity:1;fill-rule:evenodd;stroke:#000000;stroke-width:0.625;stroke-linejoin:round;stroke-opacity:1"
         id="path864-5-6-1-2" />
    </marker>
    <marker
       style="overflow:visible"
       id="marker1145-4-6-5-1"
       refX="0"
       refY="0"
       orient="auto"
       inkscape:stockid="Arrow1Lend"
       inkscape:isstock="true">
      <path
         transform="matrix(-0.8,0,0,-0.8,-10,0)"
         style="fill:#000000;fill-opacity:1;fill-rule:evenodd;stroke:#000000;stroke-width:1pt;stroke-opacity:1"
         d="M 0,0 5,-5 -12.5,0 5,5 Z"
         id="path1143-1-50-8-31" />
    </marker>
    <marker
       style="overflow:visible"
       id="Arrow2Mend-7-9-3-3"
       refX="0"
       refY="0"
       orient="auto"
       inkscape:stockid="Arrow2Mend"
       inkscape:isstock="true">
      <path
         transform="scale(-0.6)"
         d="M 8.7185878,4.0337352 -2.2072895,0.01601326 8.7185884,-4.0017078 c -1.7454984,2.3720609 -1.7354408,5.6174519 -6e-7,8.035443 z"
         style="fill:#000000;fill-opacity:1;fill-rule:evenodd;stroke:#000000;stroke-width:0.625;stroke-linejoin:round;stroke-opacity:1"
         id="path864-5-6-1-4" />
    </marker>
    <marker
       style="overflow:visible"
       id="marker1145-4-6-5-6"
       refX="0"
       refY="0"
       orient="auto"
       inkscape:stockid="Arrow1Lend"
       inkscape:isstock="true">
      <path
         transform="matrix(-0.8,0,0,-0.8,-10,0)"
         style="fill:#000000;fill-opacity:1;fill-rule:evenodd;stroke:#000000;stroke-width:1pt;stroke-opacity:1"
         d="M 0,0 5,-5 -12.5,0 5,5 Z"
         id="path1143-1-50-8-32" />
    </marker>
    <marker
       style="overflow:visible"
       id="Arrow2Mend-7-9-3-1"
       refX="0"
       refY="0"
       orient="auto"
       inkscape:stockid="Arrow2Mend"
       inkscape:isstock="true">
      <path
         transform="scale(-0.6)"
         d="M 8.7185878,4.0337352 -2.2072895,0.01601326 8.7185884,-4.0017078 c -1.7454984,2.3720609 -1.7354408,5.6174519 -6e-7,8.035443 z"
         style="fill:#000000;fill-opacity:1;fill-rule:evenodd;stroke:#000000;stroke-width:0.625;stroke-linejoin:round;stroke-opacity:1"
         id="path864-5-6-1-5" />
    </marker>
    <marker
       style="overflow:visible"
       id="marker1145-4-6-5-8-4"
       refX="0"
       refY="0"
       orient="auto"
       inkscape:stockid="Arrow1Lend"
       inkscape:isstock="true">
      <path
         transform="matrix(-0.8,0,0,-0.8,-10,0)"
         style="fill:#000000;fill-opacity:1;fill-rule:evenodd;stroke:#000000;stroke-width:1pt;stroke-opacity:1"
         d="M 0,0 5,-5 -12.5,0 5,5 Z"
         id="path1143-1-50-8-3-4" />
    </marker>
    <marker
       style="overflow:visible"
       id="Arrow2Mend-7-9-3-7-0"
       refX="0"
       refY="0"
       orient="auto"
       inkscape:stockid="Arrow2Mend"
       inkscape:isstock="true">
      <path
         transform="scale(-0.6)"
         d="M 8.7185878,4.0337352 -2.2072895,0.01601326 8.7185884,-4.0017078 c -1.7454984,2.3720609 -1.7354408,5.6174519 -6e-7,8.035443 z"
         style="fill:#000000;fill-opacity:1;fill-rule:evenodd;stroke:#000000;stroke-width:0.625;stroke-linejoin:round;stroke-opacity:1"
         id="path864-5-6-1-2-2" />
    </marker>
    <marker
       style="overflow:visible"
       id="marker1145-4-6-5-8-4-8"
       refX="0"
       refY="0"
       orient="auto"
       inkscape:stockid="Arrow1Lend"
       inkscape:isstock="true">
      <path
         transform="matrix(-0.8,0,0,-0.8,-10,0)"
         style="fill:#000000;fill-opacity:1;fill-rule:evenodd;stroke:#000000;stroke-width:1pt;stroke-opacity:1"
         d="M 0,0 5,-5 -12.5,0 5,5 Z"
         id="path1143-1-50-8-3-4-6" />
    </marker>
    <marker
       style="overflow:visible"
       id="Arrow2Mend-7-9-3-7-0-8"
       refX="0"
       refY="0"
       orient="auto"
       inkscape:stockid="Arrow2Mend"
       inkscape:isstock="true">
      <path
         transform="scale(-0.6)"
         d="M 8.7185878,4.0337352 -2.2072895,0.01601326 8.7185884,-4.0017078 c -1.7454984,2.3720609 -1.7354408,5.6174519 -6e-7,8.035443 z"
         style="fill:#000000;fill-opacity:1;fill-rule:evenodd;stroke:#000000;stroke-width:0.625;stroke-linejoin:round;stroke-opacity:1"
         id="path864-5-6-1-2-2-8" />
    </marker>
    <marker
       style="overflow:visible"
       id="marker1145-4-6-5-8-4-8-4"
       refX="0"
       refY="0"
       orient="auto"
       inkscape:stockid="Arrow1Lend"
       inkscape:isstock="true">
      <path
         transform="matrix(-0.8,0,0,-0.8,-10,0)"
         style="fill:#000000;fill-opacity:1;fill-rule:evenodd;stroke:#000000;stroke-width:1pt;stroke-opacity:1"
         d="M 0,0 5,-5 -12.5,0 5,5 Z"
         id="path1143-1-50-8-3-4-6-6" />
    </marker>
    <marker
       style="overflow:visible"
       id="Arrow2Mend-7-9-3-7-0-8-6"
       refX="0"
       refY="0"
       orient="auto"
       inkscape:stockid="Arrow2Mend"
       inkscape:isstock="true">
      <path
         transform="scale(-0.6)"
         d="M 8.7185878,4.0337352 -2.2072895,0.01601326 8.7185884,-4.0017078 c -1.7454984,2.3720609 -1.7354408,5.6174519 -6e-7,8.035443 z"
         style="fill:#000000;fill-opacity:1;fill-rule:evenodd;stroke:#000000;stroke-width:0.625;stroke-linejoin:round;stroke-opacity:1"
         id="path864-5-6-1-2-2-8-7" />
    </marker>
    <marker
       style="overflow:visible"
       id="marker1145-4-56"
       refX="0"
       refY="0"
       orient="auto"
       inkscape:stockid="Arrow1Lend"
       inkscape:isstock="true">
      <path
         transform="matrix(-0.8,0,0,-0.8,-10,0)"
         style="fill:#000000;fill-opacity:1;fill-rule:evenodd;stroke:#000000;stroke-width:1pt;stroke-opacity:1"
         d="M 0,0 5,-5 -12.5,0 5,5 Z"
         id="path1143-1-0" />
    </marker>
    <marker
       style="overflow:visible"
       id="Arrow2Mend-7-8"
       refX="0"
       refY="0"
       orient="auto"
       inkscape:stockid="Arrow2Mend"
       inkscape:isstock="true">
      <path
         transform="scale(-0.6)"
         d="M 8.7185878,4.0337352 -2.2072895,0.01601326 8.7185884,-4.0017078 c -1.7454984,2.3720609 -1.7354408,5.6174519 -6e-7,8.035443 z"
         style="fill:#000000;fill-opacity:1;fill-rule:evenodd;stroke:#000000;stroke-width:0.625;stroke-linejoin:round;stroke-opacity:1"
         id="path864-5-10" />
    </marker>
    <marker
       style="overflow:visible"
       id="marker1145-4-56-5"
       refX="0"
       refY="0"
       orient="auto"
       inkscape:stockid="Arrow1Lend"
       inkscape:isstock="true">
      <path
         transform="matrix(-0.8,0,0,-0.8,-10,0)"
         style="fill:#000000;fill-opacity:1;fill-rule:evenodd;stroke:#000000;stroke-width:1pt;stroke-opacity:1"
         d="M 0,0 5,-5 -12.5,0 5,5 Z"
         id="path1143-1-0-3" />
    </marker>
    <marker
       style="overflow:visible"
       id="Arrow2Mend-7-8-5"
       refX="0"
       refY="0"
       orient="auto"
       inkscape:stockid="Arrow2Mend"
       inkscape:isstock="true">
      <path
         transform="scale(-0.6)"
         d="M 8.7185878,4.0337352 -2.2072895,0.01601326 8.7185884,-4.0017078 c -1.7454984,2.3720609 -1.7354408,5.6174519 -6e-7,8.035443 z"
         style="fill:#000000;fill-opacity:1;fill-rule:evenodd;stroke:#000000;stroke-width:0.625;stroke-linejoin:round;stroke-opacity:1"
         id="path864-5-10-0" />
    </marker>
    <marker
       style="overflow:visible"
       id="marker1145-4-56-5-5"
       refX="0"
       refY="0"
       orient="auto"
       inkscape:stockid="Arrow1Lend"
       inkscape:isstock="true">
      <path
         transform="matrix(-0.8,0,0,-0.8,-10,0)"
         style="fill:#000000;fill-opacity:1;fill-rule:evenodd;stroke:#000000;stroke-width:1pt;stroke-opacity:1"
         d="M 0,0 5,-5 -12.5,0 5,5 Z"
         id="path1143-1-0-3-7" />
    </marker>
    <marker
       style="overflow:visible"
       id="Arrow2Mend-7-8-5-2"
       refX="0"
       refY="0"
       orient="auto"
       inkscape:stockid="Arrow2Mend"
       inkscape:isstock="true">
      <path
         transform="scale(-0.6)"
         d="M 8.7185878,4.0337352 -2.2072895,0.01601326 8.7185884,-4.0017078 c -1.7454984,2.3720609 -1.7354408,5.6174519 -6e-7,8.035443 z"
         style="fill:#000000;fill-opacity:1;fill-rule:evenodd;stroke:#000000;stroke-width:0.625;stroke-linejoin:round;stroke-opacity:1"
         id="path864-5-10-0-4" />
    </marker>
    <marker
       style="overflow:visible"
       id="marker1145-4-56-5-9"
       refX="0"
       refY="0"
       orient="auto"
       inkscape:stockid="Arrow1Lend"
       inkscape:isstock="true">
      <path
         transform="matrix(-0.8,0,0,-0.8,-10,0)"
         style="fill:#000000;fill-opacity:1;fill-rule:evenodd;stroke:#000000;stroke-width:1pt;stroke-opacity:1"
         d="M 0,0 5,-5 -12.5,0 5,5 Z"
         id="path1143-1-0-3-70" />
    </marker>
    <marker
       style="overflow:visible"
       id="Arrow2Mend-7-8-5-8"
       refX="0"
       refY="0"
       orient="auto"
       inkscape:stockid="Arrow2Mend"
       inkscape:isstock="true">
      <path
         transform="scale(-0.6)"
         d="M 8.7185878,4.0337352 -2.2072895,0.01601326 8.7185884,-4.0017078 c -1.7454984,2.3720609 -1.7354408,5.6174519 -6e-7,8.035443 z"
         style="fill:#000000;fill-opacity:1;fill-rule:evenodd;stroke:#000000;stroke-width:0.625;stroke-linejoin:round;stroke-opacity:1"
         id="path864-5-10-0-7" />
    </marker>
    <marker
       style="overflow:visible"
       id="marker9178-8"
       refX="0"
       refY="0"
       orient="auto"
       inkscape:stockid="Arrow2Mend"
       inkscape:isstock="true">
      <path
         transform="scale(-0.6)"
         d="M 8.7185878,4.0337352 -2.2072895,0.01601326 8.7185884,-4.0017078 c -1.7454984,2.3720609 -1.7354408,5.6174519 -6e-7,8.035443 z"
         style="fill:#000000;fill-opacity:1;fill-rule:evenodd;stroke:#000000;stroke-width:0.625;stroke-linejoin:round;stroke-opacity:1"
         id="path9176-3" />
    </marker>
    <marker
       style="overflow:visible"
       id="marker9178-8-0"
       refX="0"
       refY="0"
       orient="auto"
       inkscape:stockid="Arrow2Mend"
       inkscape:isstock="true">
      <path
         transform="scale(-0.6)"
         d="M 8.7185878,4.0337352 -2.2072895,0.01601326 8.7185884,-4.0017078 c -1.7454984,2.3720609 -1.7354408,5.6174519 -6e-7,8.035443 z"
         style="fill:#000000;fill-opacity:1;fill-rule:evenodd;stroke:#000000;stroke-width:0.625;stroke-linejoin:round;stroke-opacity:1"
         id="path9176-3-5" />
    </marker>
    <marker
       style="overflow:visible"
       id="marker9178-83"
       refX="0"
       refY="0"
       orient="auto"
       inkscape:stockid="Arrow2Mend"
       inkscape:isstock="true">
      <path
         transform="scale(-0.6)"
         d="M 8.7185878,4.0337352 -2.2072895,0.01601326 8.7185884,-4.0017078 c -1.7454984,2.3720609 -1.7354408,5.6174519 -6e-7,8.035443 z"
         style="fill:#000000;fill-opacity:1;fill-rule:evenodd;stroke:#000000;stroke-width:0.625;stroke-linejoin:round;stroke-opacity:1"
         id="path9176-9" />
    </marker>
    <marker
       style="overflow:visible"
       id="marker9178-8-1"
       refX="0"
       refY="0"
       orient="auto"
       inkscape:stockid="Arrow2Mend"
       inkscape:isstock="true">
      <path
         transform="scale(-0.6)"
         d="M 8.7185878,4.0337352 -2.2072895,0.01601326 8.7185884,-4.0017078 c -1.7454984,2.3720609 -1.7354408,5.6174519 -6e-7,8.035443 z"
         style="fill:#000000;fill-opacity:1;fill-rule:evenodd;stroke:#000000;stroke-width:0.625;stroke-linejoin:round;stroke-opacity:1"
         id="path9176-3-9" />
    </marker>
    <marker
       style="overflow:visible"
       id="marker9178-7"
       refX="0"
       refY="0"
       orient="auto"
       inkscape:stockid="Arrow2Mend"
       inkscape:isstock="true">
      <path
         transform="scale(-0.6)"
         d="M 8.7185878,4.0337352 -2.2072895,0.01601326 8.7185884,-4.0017078 c -1.7454984,2.3720609 -1.7354408,5.6174519 -6e-7,8.035443 z"
         style="fill:#000000;fill-opacity:1;fill-rule:evenodd;stroke:#000000;stroke-width:0.625;stroke-linejoin:round;stroke-opacity:1"
         id="path9176-6" />
    </marker>
    <marker
       style="overflow:visible"
       id="marker11926-3"
       refX="0"
       refY="0"
       orient="auto"
       inkscape:stockid="Arrow2Mend"
       inkscape:isstock="true">
      <path
         transform="scale(-0.6)"
         d="M 8.7185878,4.0337352 -2.2072895,0.01601326 8.7185884,-4.0017078 c -1.7454984,2.3720609 -1.7354408,5.6174519 -6e-7,8.035443 z"
         style="fill:#000000;fill-opacity:1;fill-rule:evenodd;stroke:#000000;stroke-width:0.625;stroke-linejoin:round;stroke-opacity:1"
         id="path11924-9" />
    </marker>
    <marker
       style="overflow:visible"
       id="marker11926-7"
       refX="0"
       refY="0"
       orient="auto"
       inkscape:stockid="Arrow2Mend"
       inkscape:isstock="true">
      <path
         transform="scale(-0.6)"
         d="M 8.7185878,4.0337352 -2.2072895,0.01601326 8.7185884,-4.0017078 c -1.7454984,2.3720609 -1.7354408,5.6174519 -6e-7,8.035443 z"
         style="fill:#000000;fill-opacity:1;fill-rule:evenodd;stroke:#000000;stroke-width:0.625;stroke-linejoin:round;stroke-opacity:1"
         id="path11924-94" />
    </marker>
  </defs>
  <sodipodi:namedview
     id="base"
     pagecolor="#ffffff"
     bordercolor="#666666"
     borderopacity="1.0"
     inkscape:pageopacity="0.0"
     inkscape:pageshadow="2"
     inkscape:zoom="0.67114695"
     inkscape:cx="159.32975"
     inkscape:cy="429.66742"
     inkscape:document-units="mm"
     inkscape:current-layer="layer1"
     inkscape:document-rotation="0"
     showgrid="true"
     inkscape:window-width="1366"
     inkscape:window-height="705"
     inkscape:window-x="1358"
     inkscape:window-y="-8"
     inkscape:window-maximized="1">
    <inkscape:grid
       type="xygrid"
       id="grid2007" />
  </sodipodi:namedview>
  <metadata
     id="metadata5">
    <rdf:RDF>
      <cc:Work
         rdf:about="">
        <dc:format>image/svg+xml</dc:format>
        <dc:type
           rdf:resource="http://purl.org/dc/dcmitype/StillImage" />
        <dc:title></dc:title>
      </cc:Work>
    </rdf:RDF>
  </metadata>
  <g
     inkscape:label="Capa 1"
     inkscape:groupmode="layer"
     id="layer1">
    <text
       xml:space="preserve"
       style="font-size:10.5833px;line-height:1.25;font-family:sans-serif;text-align:end;text-anchor:end;stroke-width:0.264583"
       x="67.954643"
       y="133.93816"
       id="text1811"><tspan
         sodipodi:role="line"
         id="tspan1809"
         x="67.954643"
         y="133.93816"
         style="stroke-width:0.264583" /></text>
    <g
       id="g11266"
       transform="translate(-12.17084,23.8125)">
      <rect
         style="fill:none;stroke:#de2121;stroke-width:0.264583"
         id="rect10"
         width="70.187714"
         height="141.17659"
         x="37.041668"
         y="22.865088" />
      <path
         style="opacity:0.998;fill:none;stroke:#000000;stroke-width:0.265;stroke-linecap:butt;stroke-linejoin:miter;stroke-miterlimit:4;stroke-dasharray:none;stroke-opacity:1;marker-mid:url(#marker1145-4);marker-end:url(#Arrow2Mend-7)"
         d="m 107.15625,35.71875 h 41.01042"
         id="path12-3" />
      <rect
         style="opacity:0.998;fill:none;stroke:#de2121;stroke-width:0.264999;stroke-miterlimit:4;stroke-dasharray:none"
         id="rect1549"
         width="36.789467"
         height="23.19573"
         x="148.41887"
         y="33.072918" />
      <text
         xml:space="preserve"
         style="font-size:4.23333px;line-height:1.25;font-family:sans-serif;text-align:end;text-anchor:end;stroke-width:0.264583"
         x="181.67021"
         y="41.276463"
         id="text1553"><tspan
           sodipodi:role="line"
           id="tspan1551"
           x="181.67021"
           y="41.276463"
           style="font-size:4.23333px;stroke-width:0.264583">AD9833</tspan></text>
      <text
         xml:space="preserve"
         style="font-size:2.11667px;line-height:1.25;font-family:sans-serif;text-align:end;text-anchor:end;stroke-width:0.264583"
         x="180.67992"
         y="47.838749"
         id="text1291-1-0"><tspan
           sodipodi:role="line"
           id="tspan1289-5-9"
           x="180.67992"
           y="47.838749"
           style="font-size:2.11667px;stroke-width:0.264583">VCC</tspan></text>
      <text
         xml:space="preserve"
         style="font-size:2.11667px;line-height:1.25;font-family:sans-serif;text-align:end;text-anchor:end;stroke-width:0.264583"
         x="182.77133"
         y="52.147686"
         id="text1291-1-0-5"><tspan
           sodipodi:role="line"
           id="tspan1289-5-9-0"
           x="182.77133"
           y="52.147686"
           style="font-size:2.11667px;stroke-width:0.264583">DGND</tspan></text>
      <text
         xml:space="preserve"
         style="font-size:2.11667px;line-height:1.25;font-family:sans-serif;text-align:end;text-anchor:end;stroke-width:0.264583"
         x="157.88092"
         y="37.847248"
         id="text1291-1-0-7"><tspan
           sodipodi:role="line"
           id="tspan1289-5-9-5"
           x="157.88092"
           y="37.847248"
           style="font-size:2.11667px;stroke-width:0.264583">SDATA</tspan></text>
      <text
         xml:space="preserve"
         style="font-size:2.11667px;line-height:1.25;font-family:sans-serif;text-align:end;text-anchor:end;stroke-width:0.264583"
         x="156.63556"
         y="42.264523"
         id="text1291-1-0-57"><tspan
           sodipodi:role="line"
           id="tspan1289-5-9-2"
           x="156.63556"
           y="42.264523"
           style="font-size:2.11667px;stroke-width:0.264583">SCLK</tspan></text>
      <text
         xml:space="preserve"
         style="font-size:2.11667px;line-height:1.25;font-family:sans-serif;text-align:end;text-anchor:end;stroke-width:0.264583"
         x="158.01247"
         y="46.593159"
         id="text1291-1-0-6"><tspan
           sodipodi:role="line"
           id="tspan1289-5-9-8"
           x="158.01247"
           y="46.593159"
           style="font-size:2.11667px;stroke-width:0.264583">FSYNC</tspan></text>
      <text
         xml:space="preserve"
         style="font-size:2.11667px;line-height:1.25;font-family:sans-serif;text-align:end;text-anchor:end;stroke-width:0.264583"
         x="157.56784"
         y="50.778301"
         id="text1291-1-0-2"><tspan
           sodipodi:role="line"
           id="tspan1289-5-9-07"
           x="157.56784"
           y="50.778301"
           style="font-size:2.11667px;stroke-width:0.264583">AGND</tspan></text>
      <text
         xml:space="preserve"
         style="font-size:2.11667px;line-height:1.25;font-family:sans-serif;text-align:end;text-anchor:end;stroke-width:0.264583"
         x="155.78685"
         y="54.498669"
         id="text1291-1-0-53"><tspan
           sodipodi:role="line"
           id="tspan1289-5-9-3"
           x="155.78685"
           y="54.498669"
           style="font-size:2.11667px;stroke-width:0.264583">OUT</tspan></text>
      <rect
         style="opacity:0.998;fill:none;stroke:#de2121;stroke-width:0.264999;stroke-miterlimit:4;stroke-dasharray:none"
         id="rect1699"
         width="35.820614"
         height="38.56892"
         x="148.16667"
         y="63.5" />
      <text
         xml:space="preserve"
         style="font-size:4.23333px;line-height:1.25;font-family:sans-serif;text-align:end;text-anchor:end;stroke-width:0.264583"
         x="175.85442"
         y="71.271721"
         id="text1553-2"><tspan
           sodipodi:role="line"
           id="tspan1551-1"
           x="175.85442"
           y="71.271721"
           style="font-size:4.23333px;stroke-width:0.264583">TFT</tspan></text>
      <text
         xml:space="preserve"
         style="font-size:2.11667px;line-height:1.25;font-family:sans-serif;text-align:end;text-anchor:end;stroke-width:0.264583"
         x="182.42224"
         y="98.402122"
         id="text1291-1-0-3"><tspan
           sodipodi:role="line"
           id="tspan1289-5-9-6"
           x="182.42224"
           y="98.402122"
           style="font-size:2.11667px;stroke-width:0.264583">VCC</tspan></text>
      <text
         xml:space="preserve"
         style="font-size:2.11667px;line-height:1.25;font-family:sans-serif;text-align:end;text-anchor:end;stroke-width:0.264583"
         x="182.32555"
         y="94.599068"
         id="text1291-1-0-5-2"><tspan
           sodipodi:role="line"
           id="tspan1289-5-9-0-8"
           x="182.32555"
           y="94.599068"
           style="font-size:2.11667px;stroke-width:0.264583">DGND</tspan></text>
      <text
         xml:space="preserve"
         style="font-size:2.11667px;line-height:1.25;font-family:sans-serif;text-align:end;text-anchor:end;stroke-width:0.264583"
         x="153.45926"
         y="91.561584"
         id="text1291-1-0-5-7"><tspan
           sodipodi:role="line"
           id="tspan1289-5-9-0-2"
           x="153.45926"
           y="91.561584"
           style="font-size:2.11667px;stroke-width:0.264583">CS</tspan></text>
      <text
         xml:space="preserve"
         style="font-size:2.11667px;line-height:1.25;font-family:sans-serif;text-align:end;text-anchor:end;stroke-width:0.264583"
         x="157.13153"
         y="87.623642"
         id="text1291-1-0-5-0"><tspan
           sodipodi:role="line"
           id="tspan1289-5-9-0-4"
           x="157.13153"
           y="87.623642"
           style="font-size:2.11667px;stroke-width:0.264583">RESET</tspan></text>
      <text
         xml:space="preserve"
         style="font-size:2.11667px;line-height:1.25;font-family:sans-serif;text-align:end;text-anchor:end;stroke-width:0.264583"
         x="157.52577"
         y="83.58284"
         id="text1291-1-0-5-8"><tspan
           sodipodi:role="line"
           id="tspan1289-5-9-0-46"
           x="157.52577"
           y="83.58284"
           style="font-size:2.11667px;stroke-width:0.264583">DC/RS</tspan></text>
      <text
         xml:space="preserve"
         style="font-size:2.11667px;line-height:1.25;font-family:sans-serif;text-align:end;text-anchor:end;stroke-width:0.264583"
         x="161.46802"
         y="79.492737"
         id="text1291-1-0-5-81"><tspan
           sodipodi:role="line"
           id="tspan1289-5-9-0-3"
           x="161.46802"
           y="79.492737"
           style="font-size:2.11667px;stroke-width:0.264583">SDI/MOSI</tspan></text>
      <text
         xml:space="preserve"
         style="font-size:2.11667px;line-height:1.25;font-family:sans-serif;text-align:end;text-anchor:end;stroke-width:0.264583"
         x="155.16042"
         y="75.254822"
         id="text1291-1-0-5-27"><tspan
           sodipodi:role="line"
           id="tspan1289-5-9-0-20"
           x="155.16042"
           y="75.254822"
           style="font-size:2.11667px;stroke-width:0.264583">SCK</tspan></text>
      <text
         xml:space="preserve"
         style="font-size:2.11667px;line-height:1.25;font-family:sans-serif;text-align:end;text-anchor:end;stroke-width:0.264583"
         x="154.76622"
         y="71.41111"
         id="text1291-1-0-5-4"><tspan
           sodipodi:role="line"
           id="tspan1289-5-9-0-34"
           x="154.76622"
           y="71.41111"
           style="font-size:2.11667px;stroke-width:0.264583">LED</tspan></text>
      <text
         xml:space="preserve"
         style="font-size:2.11667px;line-height:1.25;font-family:sans-serif;text-align:end;text-anchor:end;stroke-width:0.264583"
         x="162.05936"
         y="67.173187"
         id="text1291-1-0-5-22"><tspan
           sodipodi:role="line"
           id="tspan1289-5-9-0-85"
           x="162.05936"
           y="67.173187"
           style="font-size:2.11667px;stroke-width:0.264583">SDD/MISO</tspan></text>
      <rect
         style="opacity:0.998;fill:none;stroke:#de2121;stroke-width:0.264999;stroke-miterlimit:4;stroke-dasharray:none"
         id="rect1873"
         width="32.893635"
         height="22.489594"
         x="148.16667"
         y="108.47916" />
      <text
         xml:space="preserve"
         style="font-size:4.23333px;line-height:1.25;font-family:sans-serif;text-align:end;text-anchor:end;stroke-width:0.264583"
         x="178.64191"
         y="115.59864"
         id="text1553-1"><tspan
           sodipodi:role="line"
           id="tspan1551-0"
           x="178.64191"
           y="115.59864"
           style="font-size:4.23333px;stroke-width:0.264583">ENCODER</tspan></text>
      <text
         xml:space="preserve"
         style="font-size:2.11667px;line-height:1.25;font-family:sans-serif;text-align:end;text-anchor:end;stroke-width:0.264583"
         x="179.70628"
         y="123.59817"
         id="text1291-1-0-4"><tspan
           sodipodi:role="line"
           id="tspan1289-5-9-7"
           x="179.70628"
           y="123.59817"
           style="font-size:2.11667px;stroke-width:0.264583">VCC</tspan></text>
      <text
         xml:space="preserve"
         style="font-size:2.11667px;line-height:1.25;font-family:sans-serif;text-align:end;text-anchor:end;stroke-width:0.264583"
         x="179.91222"
         y="127.49277"
         id="text1291-1-0-5-73"><tspan
           sodipodi:role="line"
           id="tspan1289-5-9-0-5"
           x="179.91222"
           y="127.49277"
           style="font-size:2.11667px;stroke-width:0.264583">DGND</tspan></text>
      <text
         xml:space="preserve"
         style="font-size:2.11667px;line-height:1.25;font-family:sans-serif;text-align:end;text-anchor:end;stroke-width:0.264583"
         x="153.43538"
         y="119.97479"
         id="text1291-1-0-4-2"><tspan
           sodipodi:role="line"
           id="tspan1289-5-9-7-2"
           x="153.43538"
           y="119.97479"
           style="font-size:2.11667px;stroke-width:0.264583">SW</tspan></text>
      <text
         xml:space="preserve"
         style="font-size:2.11667px;line-height:1.25;font-family:sans-serif;text-align:end;text-anchor:end;stroke-width:0.264583"
         x="152.70963"
         y="115.77701"
         id="text1291-1-0-4-1"><tspan
           sodipodi:role="line"
           id="tspan1289-5-9-7-3"
           x="152.70963"
           y="115.77701"
           style="font-size:2.11667px;stroke-width:0.264583">DT</tspan></text>
      <text
         xml:space="preserve"
         style="font-size:2.11667px;line-height:1.25;font-family:sans-serif;text-align:end;text-anchor:end;stroke-width:0.264583"
         x="153.75197"
         y="111.8993"
         id="text1291-1-0-4-22"><tspan
           sodipodi:role="line"
           id="tspan1289-5-9-7-1"
           x="153.75197"
           y="111.8993"
           style="font-size:2.11667px;stroke-width:0.264583">CLK</tspan></text>
      <rect
         style="opacity:0.998;fill:none;stroke:#de2121;stroke-width:0.264999;stroke-miterlimit:4;stroke-dasharray:none"
         id="rect2009"
         width="33.072914"
         height="29.10417"
         x="148.16667"
         y="134.9375" />
      <text
         xml:space="preserve"
         style="font-size:4.23333px;line-height:1.25;font-family:sans-serif;text-align:end;text-anchor:end;stroke-width:0.264583"
         x="176.24983"
         y="146.84534"
         id="text1553-1-8"><tspan
           sodipodi:role="line"
           id="tspan1551-0-8"
           x="176.24983"
           y="146.84534"
           style="font-size:4.23333px;stroke-width:0.264583">TECLADO</tspan><tspan
           sodipodi:role="line"
           x="176.24983"
           y="152.13699"
           style="font-size:4.23333px;stroke-width:0.264583"
           id="tspan2035">MATRICIAL</tspan></text>
      <text
         xml:space="preserve"
         style="font-size:5.64444px;line-height:1.25;font-family:sans-serif;text-align:end;text-anchor:end;stroke-width:0.264583"
         x="87.230392"
         y="92.435547"
         id="text2039"><tspan
           sodipodi:role="line"
           id="tspan2037"
           x="87.230392"
           y="92.435547"
           style="font-size:5.64444px;stroke-width:0.264583">EDU-CIAA-NXP</tspan></text>
      <rect
         style="opacity:0.998;fill:none;stroke:#de2121;stroke-width:0.264999;stroke-miterlimit:4;stroke-dasharray:none"
         id="rect2041"
         width="37.041668"
         height="23.8125"
         x="47.625"
         y="50.270832" />
      <text
         xml:space="preserve"
         style="font-size:4.23333px;line-height:1.25;font-family:sans-serif;text-align:end;text-anchor:end;stroke-width:0.264583"
         x="74.36132"
         y="63.39537"
         id="text1553-7"><tspan
           sodipodi:role="line"
           id="tspan1551-2"
           x="74.36132"
           y="63.39537"
           style="font-size:4.23333px;stroke-width:0.264583">EEPROM</tspan></text>
      <rect
         style="opacity:0.998;fill:none;stroke:#de2121;stroke-width:0.264999;stroke-miterlimit:4;stroke-dasharray:none"
         id="rect2175"
         width="80.697914"
         height="9.260417"
         x="71.4375"
         y="5.2916665" />
      <text
         xml:space="preserve"
         style="font-size:4.23333px;line-height:1.25;font-family:sans-serif;text-align:end;text-anchor:end;stroke-width:0.264583"
         x="150.33472"
         y="11.813731"
         id="text1553-2-7"><tspan
           sodipodi:role="line"
           id="tspan1551-1-3"
           x="150.33472"
           y="11.813731"
           style="font-size:4.23333px;stroke-width:0.264583">ACONDICIONADOR DE SEÑAL</tspan></text>
      <path
         style="opacity:0.998;fill:none;stroke:#000000;stroke-width:0.265;stroke-linecap:butt;stroke-linejoin:miter;stroke-miterlimit:4;stroke-dasharray:none;stroke-opacity:1;marker-mid:url(#marker1145-4-7);marker-end:url(#Arrow2Mend-7-5)"
         d="m 107.15625,39.6875 h 41.01041"
         id="path12-3-6" />
      <path
         style="opacity:0.998;fill:none;stroke:#000000;stroke-width:0.265;stroke-linecap:butt;stroke-linejoin:miter;stroke-miterlimit:4;stroke-dasharray:none;stroke-opacity:1;marker-mid:url(#marker1145-4-9);marker-end:url(#Arrow2Mend-7-2)"
         d="m 107.15625,43.65625 h 41.01042"
         id="path12-3-85" />
      <text
         xml:space="preserve"
         style="font-size:2.11667px;line-height:1.25;font-family:sans-serif;text-align:end;text-anchor:end;stroke-width:0.264583"
         x="105.34849"
         y="44.470886"
         id="text1291-1-0-5-81-2"><tspan
           sodipodi:role="line"
           id="tspan1289-5-9-0-3-0"
           x="105.34849"
           y="44.470886"
           style="font-size:2.11667px;stroke-width:0.264583">T_COL0</tspan></text>
      <text
         xml:space="preserve"
         style="font-size:2.11667px;line-height:1.25;font-family:sans-serif;text-align:end;text-anchor:end;stroke-width:0.264583"
         x="105.28475"
         y="40.225761"
         id="text1291-1-0-5-81-2-4"><tspan
           sodipodi:role="line"
           id="tspan1289-5-9-0-3-0-8"
           x="105.28475"
           y="40.225761"
           style="font-size:2.11667px;stroke-width:0.264583">SPI_SCK</tspan></text>
      <text
         xml:space="preserve"
         style="font-size:2.11667px;line-height:1.25;font-family:sans-serif;text-align:end;text-anchor:end;stroke-width:0.264583"
         x="105.56113"
         y="35.975868"
         id="text1291-1-0-5-81-2-8"><tspan
           sodipodi:role="line"
           id="tspan1289-5-9-0-3-0-3"
           x="105.56113"
           y="35.975868"
           style="font-size:2.11667px;stroke-width:0.264583">SPI_MOSI</tspan></text>
      <path
         style="opacity:0.998;fill:none;stroke:#000000;stroke-width:0.265;stroke-linecap:butt;stroke-linejoin:miter;stroke-miterlimit:4;stroke-dasharray:none;stroke-opacity:1;marker-mid:url(#marker1145-4-6);marker-end:url(#Arrow2Mend-7-9)"
         d="m 130.96875,74.083333 h 16.93333"
         id="path12-3-1" />
      <path
         style="opacity:0.998;fill:none;stroke:#000000;stroke-width:0.265;stroke-linecap:butt;stroke-linejoin:miter;stroke-miterlimit:4;stroke-dasharray:none;stroke-opacity:1;marker-mid:url(#marker1145-4-6-5);marker-end:url(#Arrow2Mend-7-9-3)"
         d="m 127,78.052083 h 21.16667"
         id="path12-3-1-2" />
      <path
         style="opacity:0.998;fill:none;stroke:#000000;stroke-width:0.265;stroke-linecap:butt;stroke-linejoin:miter;stroke-miterlimit:4;stroke-dasharray:none;stroke-opacity:1;marker-mid:url(#marker1145-4-6-5-8);marker-end:url(#Arrow2Mend-7-9-3-7)"
         d="m 107.42084,82.020833 h 40.74583"
         id="path12-3-1-2-9" />
      <path
         style="opacity:0.998;fill:none;stroke:#000000;stroke-width:0.265;stroke-linecap:butt;stroke-linejoin:miter;stroke-miterlimit:4;stroke-dasharray:none;stroke-opacity:1;marker-mid:url(#marker1145-4-6-5-1);marker-end:url(#Arrow2Mend-7-9-3-3)"
         d="m 107.42083,85.989583 h 40.74584"
         id="path12-3-1-2-4" />
      <path
         style="opacity:0.998;fill:none;stroke:#000000;stroke-width:0.265;stroke-linecap:butt;stroke-linejoin:miter;stroke-miterlimit:4;stroke-dasharray:none;stroke-opacity:1;marker-mid:url(#marker1145-4-6-5-6);marker-end:url(#Arrow2Mend-7-9-3-1)"
         d="m 107.42083,89.958333 h 40.74584"
         id="path12-3-1-2-49" />
      <path
         style="fill:none;stroke:#000000;stroke-width:0.264583px;stroke-linecap:butt;stroke-linejoin:miter;stroke-opacity:1"
         d="M 130.96875,74.083332 V 39.6875 v 0"
         id="path5093" />
      <path
         style="fill:none;stroke:#000000;stroke-width:0.264583px;stroke-linecap:butt;stroke-linejoin:miter;stroke-opacity:1"
         d="M 127,78.052082 V 35.71875"
         id="path5095" />
      <text
         xml:space="preserve"
         style="font-size:2.11667px;line-height:1.25;font-family:sans-serif;text-align:end;text-anchor:end;stroke-width:0.264583"
         x="104.30672"
         y="82.417336"
         id="text1291-1-0-5-81-2-85"><tspan
           sodipodi:role="line"
           id="tspan1289-5-9-0-3-0-9"
           x="104.30672"
           y="82.417336"
           style="font-size:2.11667px;stroke-width:0.264583">GPIO0</tspan></text>
      <text
         xml:space="preserve"
         style="font-size:2.11667px;line-height:1.25;font-family:sans-serif;text-align:end;text-anchor:end;stroke-width:0.264583"
         x="104.3091"
         y="86.386086"
         id="text1291-1-0-5-81-2-85-4"><tspan
           sodipodi:role="line"
           id="tspan1289-5-9-0-3-0-9-4"
           x="104.3091"
           y="86.386086"
           style="font-size:2.11667px;stroke-width:0.264583">GPIO2</tspan></text>
      <text
         xml:space="preserve"
         style="font-size:2.11667px;line-height:1.25;font-family:sans-serif;text-align:end;text-anchor:end;stroke-width:0.264583"
         x="104.23822"
         y="90.565102"
         id="text1291-1-0-5-81-2-85-6"><tspan
           sodipodi:role="line"
           id="tspan1289-5-9-0-3-0-9-9"
           x="104.23822"
           y="90.565102"
           style="font-size:2.11667px;stroke-width:0.264583">GPIO1</tspan></text>
      <text
         xml:space="preserve"
         style="font-size:2.11667px;line-height:1.25;font-family:sans-serif;text-align:end;text-anchor:end;stroke-width:0.264583"
         x="104.16973"
         y="111.73177"
         id="text1291-1-0-5-81-2-85-6-3"><tspan
           sodipodi:role="line"
           id="tspan1289-5-9-0-3-0-9-9-4"
           x="104.16973"
           y="111.73177"
           style="font-size:2.11667px;stroke-width:0.264583">GPIO5</tspan></text>
      <path
         style="opacity:0.998;fill:none;stroke:#000000;stroke-width:0.265;stroke-linecap:butt;stroke-linejoin:miter;stroke-miterlimit:4;stroke-dasharray:none;stroke-opacity:1;marker-mid:url(#marker1145-4-6-5-8-4);marker-end:url(#Arrow2Mend-7-9-3-7-0)"
         d="m 107.15625,111.125 h 40.74583"
         id="path12-3-1-2-9-1" />
      <text
         xml:space="preserve"
         style="font-size:2.11667px;line-height:1.25;font-family:sans-serif;text-align:end;text-anchor:end;stroke-width:0.264583"
         x="104.24061"
         y="115.62964"
         id="text1291-1-0-5-81-2-85-6-3-7"><tspan
           sodipodi:role="line"
           id="tspan1289-5-9-0-3-0-9-9-4-1"
           x="104.24061"
           y="115.62964"
           style="font-size:2.11667px;stroke-width:0.264583">GPIO4</tspan></text>
      <path
         style="opacity:0.998;fill:none;stroke:#000000;stroke-width:0.265;stroke-linecap:butt;stroke-linejoin:miter;stroke-miterlimit:4;stroke-dasharray:none;stroke-opacity:1;marker-mid:url(#marker1145-4-6-5-8-4-8);marker-end:url(#Arrow2Mend-7-9-3-7-0-8)"
         d="m 107.42084,115.09375 h 40.74583"
         id="path12-3-1-2-9-1-9" />
      <path
         style="opacity:0.998;fill:none;stroke:#000000;stroke-width:0.265;stroke-linecap:butt;stroke-linejoin:miter;stroke-miterlimit:4;stroke-dasharray:none;stroke-opacity:1;marker-mid:url(#marker1145-4-6-5-8-4-8-4);marker-end:url(#Arrow2Mend-7-9-3-7-0-8-6)"
         d="m 107.42083,119.0625 h 40.74584"
         id="path12-3-1-2-9-1-9-7" />
      <text
         xml:space="preserve"
         style="font-size:2.11667px;line-height:1.25;font-family:sans-serif;text-align:end;text-anchor:end;stroke-width:0.264583"
         x="104.31149"
         y="119.59839"
         id="text1291-1-0-5-81-2-85-6-3-7-3"><tspan
           sodipodi:role="line"
           id="tspan1289-5-9-0-3-0-9-9-4-1-2"
           x="104.31149"
           y="119.59839"
           style="font-size:2.11667px;stroke-width:0.264583">GPIO6</tspan></text>
      <text
         xml:space="preserve"
         style="font-size:2.11667px;line-height:1.25;font-family:sans-serif;text-align:end;text-anchor:end;stroke-width:0.264583"
         x="104.3716"
         y="159.52562"
         id="text1291-1-0-5-81-2-85-6-3-7-3-3"><tspan
           sodipodi:role="line"
           id="tspan1289-5-9-0-3-0-9-9-4-1-2-1"
           x="104.3716"
           y="159.52562"
           style="font-size:2.11667px;stroke-width:0.264583">T_FIL2</tspan></text>
      <text
         xml:space="preserve"
         style="font-size:2.11667px;line-height:1.25;font-family:sans-serif;text-align:end;text-anchor:end;stroke-width:0.264583"
         x="104.50371"
         y="156.22754"
         id="text1291-1-0-5-81-2-85-6-3-7-3-3-5"><tspan
           sodipodi:role="line"
           id="tspan1289-5-9-0-3-0-9-9-4-1-2-1-1"
           x="104.50371"
           y="156.22754"
           style="font-size:2.11667px;stroke-width:0.264583">T_FIL3</tspan></text>
      <text
         xml:space="preserve"
         style="font-size:2.11667px;line-height:1.25;font-family:sans-serif;text-align:end;text-anchor:end;stroke-width:0.264583"
         x="104.48971"
         y="153.08806"
         id="text1291-1-0-5-81-2-85-6-3-7-3-3-3"><tspan
           sodipodi:role="line"
           id="tspan1289-5-9-0-3-0-9-9-4-1-2-1-9"
           x="104.48971"
           y="153.08806"
           style="font-size:2.11667px;stroke-width:0.264583">T_FIL0</tspan></text>
      <text
         xml:space="preserve"
         style="font-size:2.11667px;line-height:1.25;font-family:sans-serif;text-align:end;text-anchor:end;stroke-width:0.264583"
         x="104.70314"
         y="149.66487"
         id="text1291-1-0-5-81-2-85-6-3-7-3-3-35"><tspan
           sodipodi:role="line"
           id="tspan1289-5-9-0-3-0-9-9-4-1-2-1-8"
           x="104.70314"
           y="149.66487"
           style="font-size:2.11667px;stroke-width:0.264583">T_COL1</tspan></text>
      <text
         xml:space="preserve"
         style="font-size:2.11667px;line-height:1.25;font-family:sans-serif;text-align:end;text-anchor:end;stroke-width:0.264583"
         x="104.63345"
         y="146.76077"
         id="text1291-1-0-5-81-2-85-6-3-7-3-3-2"><tspan
           sodipodi:role="line"
           id="tspan1289-5-9-0-3-0-9-9-4-1-2-1-6"
           x="104.63345"
           y="146.76077"
           style="font-size:2.11667px;stroke-width:0.264583">CAN_TD</tspan></text>
      <text
         xml:space="preserve"
         style="font-size:2.11667px;line-height:1.25;font-family:sans-serif;text-align:end;text-anchor:end;stroke-width:0.264583"
         x="104.47955"
         y="144.0934"
         id="text1291-1-0-5-81-2-85-6-3-7-3-3-9"><tspan
           sodipodi:role="line"
           id="tspan1289-5-9-0-3-0-9-9-4-1-2-1-5"
           x="104.47955"
           y="144.0934"
           style="font-size:2.11667px;stroke-width:0.264583">CAN_RD</tspan></text>
      <text
         xml:space="preserve"
         style="font-size:2.11667px;line-height:1.25;font-family:sans-serif;text-align:end;text-anchor:end;stroke-width:0.264583"
         x="104.49653"
         y="141.23125"
         id="text1291-1-0-5-81-2-85-6-3-7-3-3-21"><tspan
           sodipodi:role="line"
           id="tspan1289-5-9-0-3-0-9-9-4-1-2-1-16"
           x="104.49653"
           y="141.23125"
           style="font-size:2.11667px;stroke-width:0.264583">232_TX</tspan></text>
      <text
         xml:space="preserve"
         style="font-size:2.11667px;line-height:1.25;font-family:sans-serif;text-align:end;text-anchor:end;stroke-width:0.264583"
         x="104.56734"
         y="138.13113"
         id="text1291-1-0-5-81-2-85-6-3-7-3-3-21-1"><tspan
           sodipodi:role="line"
           id="tspan1289-5-9-0-3-0-9-9-4-1-2-1-16-1"
           x="104.56734"
           y="138.13113"
           style="font-size:2.11667px;stroke-width:0.264583">232_RX</tspan></text>
      <path
         style="fill:none;stroke:#000000;stroke-width:0.264583px;stroke-linecap:butt;stroke-linejoin:miter;stroke-opacity:1"
         d="m 107.15625,137.58333 h 5.85863 v 7.9375 h 29.29315 v -5.29167 l 5.85864,7.9375 -5.85864,7.9375 v -5.29166 h -29.29315 v 7.9375 h -5.85863"
         id="path6549" />
      <path
         style="opacity:0.998;fill:none;stroke:#000000;stroke-width:0.265;stroke-linecap:butt;stroke-linejoin:miter;stroke-miterlimit:4;stroke-dasharray:none;stroke-opacity:1;marker-mid:url(#marker1145-4-56);marker-end:url(#Arrow2Mend-7-8)"
         d="M 71.4375,9.2604167 H 58.208334"
         id="path12-3-8" />
      <text
         xml:space="preserve"
         style="font-size:2.11667px;line-height:1.25;font-family:sans-serif;text-align:end;text-anchor:end;stroke-width:0.264583"
         x="78.594818"
         y="11.094437"
         id="text1291-1-0-5-81-2-8-7"><tspan
           sodipodi:role="line"
           id="tspan1289-5-9-0-3-0-3-3"
           x="78.594818"
           y="11.094437"
           style="font-size:2.11667px;stroke-width:0.264583">OUT</tspan></text>
      <text
         xml:space="preserve"
         style="font-size:2.11667px;line-height:1.25;font-family:sans-serif;text-align:end;text-anchor:end;stroke-width:0.264583"
         x="-24.984516"
         y="86.919167"
         id="text1291-1-0-5-81-2-8-8"
         transform="rotate(-90)"><tspan
           sodipodi:role="line"
           id="tspan1289-5-9-0-3-0-3-35"
           x="-24.984516"
           y="86.919167"
           style="font-size:2.11667px;stroke-width:0.264583">DAC</tspan></text>
      <text
         xml:space="preserve"
         style="font-size:2.11667px;line-height:1.25;font-family:sans-serif;text-align:end;text-anchor:end;stroke-width:0.264583"
         x="-25.350616"
         y="91.665314"
         id="text1291-1-0-5-81-2-8-0"
         transform="rotate(-90)"><tspan
           sodipodi:role="line"
           id="tspan1289-5-9-0-3-0-3-5"
           x="-25.350616"
           y="91.665314"
           style="font-size:2.11667px;stroke-width:0.264583">GNDA</tspan></text>
      <path
         style="opacity:0.998;fill:none;stroke:#000000;stroke-width:0.265;stroke-linecap:butt;stroke-linejoin:miter;stroke-miterlimit:4;stroke-dasharray:none;stroke-opacity:1;marker-mid:url(#marker1145-4-56-5);marker-end:url(#Arrow2Mend-7-8-5)"
         d="m 85.989583,22.489583 v -7.9375"
         id="path12-3-8-3" />
      <path
         style="opacity:0.998;fill:none;stroke:#000000;stroke-width:0.265;stroke-linecap:butt;stroke-linejoin:miter;stroke-miterlimit:4;stroke-dasharray:none;stroke-opacity:1;marker-mid:url(#marker1145-4-56-5-5);marker-end:url(#Arrow2Mend-7-8-5-2)"
         d="m 91.281249,22.489583 v -7.9375"
         id="path12-3-8-3-8" />
      <path
         style="fill:none;stroke:#000000;stroke-width:0.264583px;stroke-linecap:butt;stroke-linejoin:miter;stroke-opacity:1;marker-end:url(#marker8854)"
         d="m 144.19791,48.947916 h -5.29166 V 14.552083"
         id="path8540" />
      <path
         style="fill:none;stroke:#000000;stroke-width:0.264583px;stroke-linecap:butt;stroke-linejoin:miter;stroke-opacity:1;marker-end:url(#Arrow2Mend)"
         d="M 144.19791,52.916666 H 134.9375 V 14.552083"
         id="path9120" />
      <path
         style="fill:none;stroke:#000000;stroke-width:0.264583px;stroke-linecap:butt;stroke-linejoin:miter;stroke-opacity:1"
         d="m 148.16666,48.947916 h -3.96875"
         id="path9152" />
      <path
         style="fill:none;stroke:#000000;stroke-width:0.264583px;stroke-linecap:butt;stroke-linejoin:miter;stroke-opacity:1"
         d="m 144.19791,52.916666 h 3.96875"
         id="path9154" />
      <path
         style="fill:none;stroke:#000000;stroke-width:0.264583px;stroke-linecap:butt;stroke-linejoin:miter;stroke-opacity:1;marker-end:url(#marker9178)"
         d="m 189.17708,123.03125 h -7.9375"
         id="path9156" />
      <path
         style="fill:none;stroke:#000000;stroke-width:0.264583px;stroke-linecap:butt;stroke-linejoin:miter;stroke-opacity:1;marker-end:url(#marker9178-8)"
         d="m 189.17708,127 h -7.9375"
         id="path9156-1" />
      <path
         style="fill:none;stroke:#000000;stroke-width:0.264583px;stroke-linecap:butt;stroke-linejoin:miter;stroke-opacity:1;marker-end:url(#marker9178-83)"
         d="m 191.82292,93.927083 h -7.9375"
         id="path9156-7" />
      <path
         style="fill:none;stroke:#000000;stroke-width:0.264583px;stroke-linecap:butt;stroke-linejoin:miter;stroke-opacity:1;marker-end:url(#marker9178-8-0)"
         d="m 191.82292,97.895833 h -7.9375"
         id="path9156-1-4" />
      <path
         style="fill:none;stroke:#000000;stroke-width:0.264583px;stroke-linecap:butt;stroke-linejoin:miter;stroke-opacity:1;marker-end:url(#marker9178-7)"
         d="m 193.14583,47.625001 h -7.9375"
         id="path9156-8" />
      <path
         style="fill:none;stroke:#000000;stroke-width:0.264583px;stroke-linecap:butt;stroke-linejoin:miter;stroke-opacity:1;marker-end:url(#marker9178-8-1)"
         d="m 193.14583,51.593751 h -7.9375"
         id="path9156-1-9" />
      <text
         xml:space="preserve"
         style="font-size:2.11667px;line-height:1.25;font-family:sans-serif;text-align:end;text-anchor:end;stroke-width:0.264583"
         x="198.50624"
         y="48.188389"
         id="text1291-1-0-60"><tspan
           sodipodi:role="line"
           id="tspan1289-5-9-9"
           x="198.50624"
           y="48.188389"
           style="font-size:2.11667px;stroke-width:0.264583">+5V</tspan></text>
      <text
         xml:space="preserve"
         style="font-size:2.11667px;line-height:1.25;font-family:sans-serif;text-align:end;text-anchor:end;stroke-width:0.264583"
         x="198.85541"
         y="52.25341"
         id="text1291-1-0-5-07"><tspan
           sodipodi:role="line"
           id="tspan1289-5-9-0-9"
           x="198.85541"
           y="52.25341"
           style="font-size:2.11667px;stroke-width:0.264583">GND</tspan></text>
      <text
         xml:space="preserve"
         style="font-size:2.11667px;line-height:1.25;font-family:sans-serif;text-align:end;text-anchor:end;stroke-width:0.264583"
         x="197.22055"
         y="94.597397"
         id="text1291-1-0-60-7"><tspan
           sodipodi:role="line"
           id="tspan1289-5-9-9-8"
           x="197.22055"
           y="94.597397"
           style="font-size:2.11667px;stroke-width:0.264583">+5V</tspan></text>
      <text
         xml:space="preserve"
         style="font-size:2.11667px;line-height:1.25;font-family:sans-serif;text-align:end;text-anchor:end;stroke-width:0.264583"
         x="197.56972"
         y="98.662415"
         id="text1291-1-0-5-07-9"><tspan
           sodipodi:role="line"
           id="tspan1289-5-9-0-9-4"
           x="197.56972"
           y="98.662415"
           style="font-size:2.11667px;stroke-width:0.264583">GND</tspan></text>
      <text
         xml:space="preserve"
         style="font-size:2.11667px;line-height:1.25;font-family:sans-serif;text-align:end;text-anchor:end;stroke-width:0.264583"
         x="196.05872"
         y="123.54015"
         id="text1291-1-0-60-73"><tspan
           sodipodi:role="line"
           id="tspan1289-5-9-9-5"
           x="196.05872"
           y="123.54015"
           style="font-size:2.11667px;stroke-width:0.264583">+3.3V</tspan></text>
      <text
         xml:space="preserve"
         style="font-size:2.11667px;line-height:1.25;font-family:sans-serif;text-align:end;text-anchor:end;stroke-width:0.264583"
         x="195.08377"
         y="127.67486"
         id="text1291-1-0-5-07-6"><tspan
           sodipodi:role="line"
           id="tspan1289-5-9-0-9-47"
           x="195.08377"
           y="127.67486"
           style="font-size:2.11667px;stroke-width:0.264583">GND</tspan></text>
    </g>
    <text
       xml:space="preserve"
       style="font-size:10.5833px;line-height:1.25;font-family:sans-serif;text-align:end;text-anchor:end;stroke-width:0.264583"
       x="194.99791"
       y="123.03125"
       id="text10905"><tspan
         sodipodi:role="line"
         id="tspan10903"
         x="194.99791"
         y="123.03125"
         style="stroke-width:0.264583"></tspan></text>
    <path
       style="fill:none;stroke:#000000;stroke-width:0.264583px;stroke-linecap:butt;stroke-linejoin:miter;stroke-opacity:1;marker-end:url(#marker11926)"
       d="m 105.83333,23.8125 v 5.291666"
       id="path11916" />
    <path
       style="fill:none;stroke:#000000;stroke-width:0.264583px;stroke-linecap:butt;stroke-linejoin:miter;stroke-opacity:1;marker-end:url(#marker11926-3)"
       d="m 109.80208,23.812501 v 5.291666"
       id="path11916-7" />
    <path
       style="fill:none;stroke:#000000;stroke-width:0.264583px;stroke-linecap:butt;stroke-linejoin:miter;stroke-opacity:1;marker-end:url(#marker11926-7)"
       d="m 113.77083,23.812501 v 5.291666"
       id="path11916-0" />
    <text
       xml:space="preserve"
       style="font-size:2.11667px;line-height:1.25;font-family:sans-serif;text-align:end;text-anchor:end;stroke-width:0.264583"
       x="-17.611925"
       y="106.42689"
       id="text13353"
       transform="rotate(-90)"><tspan
         sodipodi:role="line"
         id="tspan13351"
         x="-17.611925"
         y="106.42689"
         style="stroke-width:0.264583">-12V</tspan></text>
    <text
       xml:space="preserve"
       style="font-size:2.11667px;line-height:1.25;font-family:sans-serif;text-align:end;text-anchor:end;stroke-width:0.264583"
       x="-13.703322"
       y="110.47609"
       id="text13353-5"
       transform="rotate(-90)"><tspan
         sodipodi:role="line"
         id="tspan13351-2"
         x="-13.703322"
         y="110.47609"
         style="stroke-width:0.264583">GNDPWR</tspan></text>
    <text
       xml:space="preserve"
       style="font-size:2.11667px;line-height:1.25;font-family:sans-serif;text-align:end;text-anchor:end;stroke-width:0.264583"
       x="-17.539852"
       y="114.46893"
       id="text13353-1"
       transform="rotate(-90)"><tspan
         sodipodi:role="line"
         id="tspan13351-5"
         x="-17.539852"
         y="114.46893"
         style="stroke-width:0.264583">+12V</tspan></text>
  </g>
</svg>
