[Main]
FileType=CIR
Version=8.01
Program=Micro-Cap
Screen=1366,768
MCAPVersion=8.1.1.0
Key ID=123 456 789
NLCnt=62
TXCnt=3

[shapedef]
Name=Battery
Line=0,0,22,0
Line=22,-3,22,3
Line=26,-7,26,7
Line=26,0,48,0
Current=32,8,16,8

[shapedef]
Name=SPICE_V
Root="Vsource.root",0,-12,0

[shapedef]
Name=Resistor
PolyOpen=12 
PolyLine=0,0
PolyLine=0,0
PolyLine=12,0
PolyLine=14,-4
PolyLine=18,4
PolyLine=22,-4
PolyLine=26,4
PolyLine=30,-4
PolyLine=34,4
PolyLine=36,0
PolyLine=48,0
PolyLine=48,0
Current=32,8,16,8

[shapedef]
Name=Opamp5
Root="Opamp.root",0,-4,0
Root="Plus.root",23,-6,0
Root="Minus.root",23,52,0
Line=32,56,32,34
Line=32,-8,32,13

[shapedef]
Name=Ground
Line=0,0,12,0
Line=12,-8,12,8
Line=18,-4,18,4
Line=24,0,24,0

[shapedef]
Name=Opamp.root
Line=0,48,6,48
Line=0,0,5,0
Line=6,-4,6,52
Line=6,-4,48,24
Line=6,52,48,24
Line=48,24,72,24
Line=10,12,14,12
Line=12,10,12,14
Line=10,36,14,36
Line=4,0,6,0

[shapedef]
Name=Minus.root
Line=-2,0,2,0

[shapedef]
Name=Vsource.root
Line=0,0,12,0
Line=36,0,48,0
Ellipse=12,-12,36,12
Line=7,5,7,9
Root="Plus.root",39,5,0
Current=32,16,16,16

[shapedef]
Name=Plus.root
Line=-2,0,2,0
Line=0,-2,0,2

[compdef]
Name=Opamp
Definition=Opamp
Shape=Opamp5
Mask=5121
memo=Opamp
Label Offset=44,29,-14,39
PinCnt=5
Pin="Plus input",0,0,-31,-7
Pin="Minus input",0,6,-33,20
Pin="VEE",4,7,3,-5
Pin="Output",9,3,-13,-4
Pin="VCC",4,-1,5,14

[compdef]
Name=Battery
Definition=Battery
Shape=Battery
Mask=5889
memo=Battery
Label Offset=19,7,10,13
PinCnt=2
Pin="Plus",6,0,-4,-5
Pin="Minus",0,0,-10,-5

[compdef]
Name=Ground
Definition=Ground
Shape=Ground
Mask=1793
memo=Ground
Label Offset=0,0,0,0
PinCnt=1
Pin="PinA",0,0,-3,-7

[compdef]
Name=Resistor
Definition=Resistor
Shape=Resistor
Mask=7937
memo=Resistor
Label Offset=18,6,8,11
PinCnt=2
Pin="Plus",6,0,-10,-4
Pin="Minus",0,0,-14,-4

[compdef]
Name=Voltage Source
Definition=VSpice
Shape=SPICE_V
Mask=4864
memo=Voltage Source
Label Offset=19,13,15,13
PinCnt=2
Pin="Plus",6,0,-5,-6
Pin="Minus",0,0,-20,-6

[Circuit]
Window Placement=2,3, -1,-1, -8,-31, 0,0,1180,417
Default Object=Color=4
Default Object Font=Height=-15,FStyle=0,Color=4,Name=Arial
Default Object Apply Border To Text=No
Default Object Apply Fill To Text=No
WinBackGround Color=15
Select Color=9
Select Box Color=4
Grid Text Color=Height=-12,FStyle=0,Color=1,Name=Arial
Component Color=12
Attribute Text=Height=-12,FStyle=0,Color=2,Name=Arial
Wire Color=2
Pin Connection=Height=-10,FStyle=0,Color=9,Name=Arial
Node Number=Height=-11,FStyle=0,Color=13,Name=Arial
Node Voltage Color=0
Dynamic AC Voltage Color=56
Text Banner Text=Height=-15,FStyle=0,Color=1,Name=Arial
Title Block Background=7
Current=Height=-11,FStyle=0,Color=12,Name=Arial
Power/Condition=Height=-11,FStyle=0,Color=9,Name=Arial
Digital Path Color=9
Title Block=Height=-15,FStyle=0,Color=0,Name=Arial
Digital 0 Color=0
Digital R Color=11
Digital F Color=11
Digital 1 Color=9
Digital X Color=7
Digital Z Color=8
Window Placement in Analysis=2,3, 0,575, -8,-31, 26,26,1210,447
SpiceType=AMBIGUOUS
Block Select Color=41
TitleBlock Field_1=$name
TitleBlock Field_2=$user $company
TitleBlock Field_3
TitleBlock Field_4=$date
TitleBlock Field_5=Page $page of $maxpage
TitleBlock One Title=False
Title_Block_Border=False
Title_Block=False

[Comp]
Name=Opamp
Grid=60,23

[Attr]
ONV=44,30,PART,X1
Style=8192

[Attr]
ONV=44,59,MODEL,LM318

[Attr]
ONV=44,74,PACKAGE,TO-5C_8

[Comp]
Name=Battery
Grid=6,10
Rot=3
Page=4

[Attr]
ONV=-24,-28,VALUE,15
Style=8192

[Attr]
ONV=-24,-43,PART,V1
Style=8192

[Comp]
Name=Ground
Grid=6,10
Rot=7
Page=4

[Comp]
Name=Battery
Grid=14,10
Rot=3
Page=4

[Attr]
ONV=-28,-28,VALUE,-15
Style=8192

[Attr]
ONV=-24,-43,PART,V2
Style=8192

[Comp]
Name=Ground
Grid=14,10
Rot=7
Page=4

[Comp]
Name=Opamp
Grid=96,24

[Attr]
ONV=44,30,PART,X2
Style=8192

[Attr]
ONV=44,59,MODEL,LM318

[Attr]
ONV=44,74,PACKAGE,TO-5C_8

[Comp]
Name=Resistor
Grid=52,29
Rot=4

[Attr]
ONV=16,12,PART,R1
Style=8192

[Attr]
ONV=12,25,VALUE,1.3k
Style=8192

[Comp]
Name=Resistor
Grid=54,23
Rot=4

[Attr]
ONV=21,-34,PART,R2
Style=8192

[Attr]
ONV=16,-20,VALUE,1.3k
Style=8192

[Comp]
Name=Resistor
Grid=92,17
Rot=7

[Attr]
ONV=-24,11,PART,R3
Style=8192

[Attr]
ONV=-28,26,VALUE,10k
Style=8192

[Comp]
Name=Resistor
Grid=84,24
Rot=4

[Attr]
ONV=13,9,PART,R4
Style=8192

[Attr]
ONV=8,28,VALUE,10k
Style=8192

[Wire]
Grids=78,24,84,24

[Wire]
Grids=78,24,78,26

[Wire]
Grids=69,26,78,26

[Wire]
Grids=90,24,92,24

[Wire]
Grids=92,23,92,24

[Wire]
Grids=92,24,96,24

[Wire]
Grids=68,13,78,13

[Wire]
Grids=78,13,78,24

[Wire]
Grids=60,13,62,13

[Wire]
Grids=60,13,60,23

[Comp]
Name=Ground
Grid=54,23
Rot=7

[Comp]
Name=Voltage Source
Grid=43,35
Rot=3

[Attr]
ONV=-59,-28,PART,AD9833
Style=8192

[Attr]
ONV=-264,-43,VALUE,DC 0 AC 0 0 Sin 0 0.1 1meg 0 0 0

[Attr]
ONV=0,0,Saved_Pulse,DC 0 AC 1 0 Pulse 0 5 100n 10n 10n 400n 1u
Style=256

[Attr]
ONV=0,11,Saved_Sin,DC 0 AC 0 0 Sin 0 0.1 1meg 0 0 0
Style=256

[Comp]
Name=Ground
Grid=43,35
Rot=7

[Comp]
Name=Resistor
Grid=93,36
Rot=7

[Attr]
ONV=-24,11,PART,R5
Style=8192

[Attr]
ONV=-28,26,VALUE,10k
Style=8192

[Comp]
Name=Resistor
Grid=96,35
Rot=4

[Attr]
ONV=17,6,PART,R6
Style=8192

[Attr]
ONV=15,21,VALUE,10k
Style=8192

[Wire]
Grids=93,30,96,30

[Wire]
Grids=93,30,93,35

[Wire]
Grids=93,35,96,35

[Wire]
Grids=93,35,93,36

[Wire]
Grids=102,35,106,35

[Wire]
Grids=106,27,106,35

[Wire]
Grids=104,27,105,27

[Comp]
Name=Ground
Grid=93,42
Rot=7

[Wire]
Grids=105,27,106,27

[Comp]
Name=Battery
Grid=115,12
Rot=5

[Attr]
ONV=-33,-39,PART,V3
Style=8192

[Attr]
ONV=-35,-21,VALUE,-15
Style=8192

[Comp]
Name=Battery
Grid=64,40
Rot=5

[Attr]
ONV=-24,13,PART,V4
Style=8192

[Attr]
ONV=-24,28,VALUE,15
Style=8192

[Comp]
Name=Ground
Grid=115,12
Rot=7

[Comp]
Name=Ground
Grid=64,40
Rot=7

[Comp]
Name=Resistor
Grid=62,13
Rot=4

[Attr]
ONV=-24,11,PART,R9
Style=8192

[Attr]
ONV=-15,26,VALUE,1
Style=8192

[Comp]
Name=Resistor
Grid=86,11
Rot=4

[Attr]
ONV=-31,11,PART,R10
Style=8192

[Attr]
ONV=-29,26,VALUE,700
Style=8192

[Comp]
Name=Resistor
Grid=95,11
Rot=4

[Attr]
ONV=-31,11,PART,R11
Style=8192

[Attr]
ONV=-29,26,VALUE,300
Style=8192

[Wire]
Grids=92,11,95,11

[Wire]
Grids=92,11,92,17

[Wire]
Grids=95,11,96,11

[Wire]
Grids=58,29,60,29

[Wire]
Grids=43,29,52,29

[Wire]
Grids=64,30,64,32

[Wire]
Grids=64,32,111,32

[Wire]
Grids=111,18,111,32

[Wire]
Grids=64,32,64,34

[Wire]
Grids=100,11,100,18

[Wire]
Grids=100,11,101,11

[Wire]
Grids=100,18,111,18

[Wire]
Grids=100,18,100,23

[Wire]
Grids=86,6,86,11

[Wire]
Grids=86,6,115,6

[Wire]
Grids=100,31,122,31

[Wire]
Grids=122,6,122,31

[Wire]
Grids=64,22,86,22

[Wire]
Grids=86,11,86,22

[Wire]
Grids=115,6,122,6

[Wire]
Grids=64,34,64,35

[Condition Offsets]

[Grid Text]
Text="SAL"
Grid=105,27
CBorder=NONE

[Grid Text]
Text="VC"
Grid=6,4
Page=4
CBorder=NONE

[Grid Text]
Text="VE"
Grid=14,4
Page=4
CBorder=NONE

[Schematic]
Page 0=0
TabSize 0=340
Page 1=0
TabSize 1=340
Page 2=0
TabSize 2=340
Page 3=0
TabSize 3=340
Splitter.xs=0
Splitter.ys=0
TextQuad=4099
Scale=0.6666666666666666
PrinterScale=1
View=304
GridUser=10

[Tools]
Pos=Top
SELECT=Yes
COMP=Yes
TEXT=Yes
WIRE=Yes
WIRED=Yes
GRAPHIC=Yes
LINE=No
ELLIPSE=No
RECT=No
DIAM=No
ARC=No
PIE=No
LEFTBRK=No
RIGHTBRK=No
BOTHBRK=No
FLAG=Yes
META=No
INFO=Yes
HELP=Yes
DIGTRC=No
DIGTRC2=No
DIGALL=No
GRIDTEXT=Yes
COMPTEXT=Yes
NODE=Yes
NODEV=Yes
CURRENT=Yes
POWER=Yes
CONDITIN=Yes
PIN=Yes
CROSS=Yes
GRID=Yes
BORDER=Yes
TITLE=Yes
RUBBER=Yes
PROPERTY=Yes
STEP=Yes
MIRROR=Yes
ROTATE=Yes
FLIPY=Yes
FILPX=Yes
FINDCOMP=Yes
FIND=Yes
REPEAT=No
MODEL=Yes
CIR2CKT=No
ATTDISP=No
TOFRONT=Yes
TOBACK=Yes
PAGEADD=Yes
PAGEDEL=Yes
ZOOMIN=Yes
ZOOMOUT=Yes
GOTOFLAG=Yes
COLOR=Yes
FONT=Yes

[Page]
Index=0
Print=True
Name=Main
Scale 0=1
Scale 1=1
Scale 2=1
SB 3=227,38
Scale 3=0.6666666666666666
Grid=76,39

[Page]
Index=1
Type=Text
Print=False
Name=Text
Scale 0=1
Scale 1=1
Scale 2=1
Scale 3=1
Grid=0,0

[Page]
Index=2
Type=Text
Print=False
Name=Models
Scale 0=1
Scale 1=1
Scale 2=1
Scale 3=1
Grid=0,0

[Page]
Index=3
Type=Info
Print=False
Name=Info
Scale 0=1
Scale 1=1
Scale 2=1
Scale 3=1
Grid=0,0

[Page]
Index=4
Print=True
Name=Power Supplies
Scale 0=1
Scale 1=1
Scale 2=1
Scale 3=1
Grid=0,0

[Text Area]
Page=1
Font=Height=-15,FStyle=0,Color=4,Name=Courier New
Comment Color=8
Background Color=15
Len=0


[Text Area]
Page=2
Font=Height=-15,FStyle=0,Color=4,Name=Courier New
Comment Color=8
Background Color=15
Len=0


[Transient]
Window Placement=2,3, 0,575, -8,-31, 26,26,1210,447
Font=Height=-15,FStyle=0,Color=12,Name=Arial
WinBackGround Color=15
Select Color=9
Select Box Color=4
Title
AutoTitle=Yes
Grid Color=8
Grid Weight=1
Grid Pattern=Dot6
Tracker Foreground=Height=-15,FStyle=0,Color=0,Name=Arial
Tracker Background=11
Baseline color=12
Static Grids=False
MinorLog25=Off
LabelMinor=Off
Graph Background=15
Tracker Intercept=False
Tracker Mouse=True
Tracker Cursor=True
Tracker Cursor BranchInfo=False
Horizontal Cursor=False
Same Y Scales=Yes
Enable X Scaling=True
Enable Y Scaling=True
Keep X Scales The Same=False
Number of Grids X=5
Number of Grids Y=5
Cursor Select Color Primary=7
Cursor Select Color Secondary=9
Data Point Labels Color Fore=Height=-15,FStyle=0,Color=0,Name=Arial
Data Point Labels Color Back=11
FFT_NPts="1024"
FFT_IncludeDCHarmonic=False
FFT_AutoScale_Harmonics="10"
PrinterAutoTile=No
PrinterBlackBorder=No
MonMaxShow=2
MonPlotWidth=21
MonExprXWidth=142
MonExprYWidth=260
MonRangeXWidth=90
MonRangeYWidth=90
AnimateWait=0
AnimateWaitTime=500
Save_For_Future=No
Reduce_Display=1
Reduce_Save=1
Num Out Header Left
Num Out Header Center="$MC\n$user\n$company\n$Analysis of $name"
Num Out Header Right
Num Out Delimiter=32
Num Out Write=True
Num Out Write Models=True
Num Out Write Zero Models=True
Num Out Write Undefined Models=True
Num Out Write Limits=True
Num Out Write Values=True
Num Out Write Operating Point=True
Num Out Font=Height=-15,FStyle=0,Color=4,Name=Courier New

[Tools]
Pos=Top
SELECT=Yes
GRAPHIC=Yes
LINE=No
ELLIPSE=No
RECT=No
DIAM=No
ARC=No
PIE=No
LEFTBRK=No
RIGHTBRK=No
BOTHBRK=No
POLYCLOS=No
SCALE=Yes
CURSOR=Yes
MEASUREH=Yes
MEASUREV=Yes
TAG=Yes
TEXT=Yes
PROPERTY=Yes
START=Yes
STOP=Yes
PAUSE=Yes
DATAPTS=Yes
TOKENS=Yes
RULER=Yes
PLUS=Yes
XAXIS=Yes
YAXIS=Yes
MINORLOG=Yes
LOG25=Yes
BASELINE=Yes
HORIZCUR=Yes
GOTOX=Yes
GOTOY=Yes
GOTOPERF=Yes
GOTOBRNC=Yes
NEXT=Yes
NEXTIN=Yes
PEAK=Yes
VALLEY=Yes
HIGH=Yes
LOW=Yes
INFLECTN=Yes
GHIGH=Yes
GLOW=Yes
BOTTOM=Yes
TOP=Yes
AOUTPUT=Yes
PKEY=Yes
ENXSCALE=Yes
ENYSCALE=Yes
ZOOMIN=Yes
ZOOMOUT=Yes
COLOR=Yes
FONT=Yes

[AC]
Window Placement=2,3, -1,-1, -8,-31, 182,182,1366,603
Font=Height=-15,FStyle=0,Color=12,Name=Arial
WinBackGround Color=15
Select Color=9
Select Box Color=4
Title
AutoTitle=Yes
Grid Color=8
Grid Weight=1
Grid Pattern=Dot6
Tracker Foreground=Height=-15,FStyle=0,Color=0,Name=Arial
Tracker Background=11
Baseline color=12
Static Grids=False
MinorLog25=Off
LabelMinor=Off
Graph Background=15
Tracker Intercept=False
Tracker Mouse=True
Tracker Cursor=True
Tracker Cursor BranchInfo=False
Horizontal Cursor=False
Same Y Scales=Yes
Enable X Scaling=True
Enable Y Scaling=True
Keep X Scales The Same=False
Number of Grids X=5
Number of Grids Y=5
Cursor Select Color Primary=7
Cursor Select Color Secondary=9
Data Point Labels Color Fore=Height=-15,FStyle=0,Color=0,Name=Arial
Data Point Labels Color Back=11
FFT_NPts="1024"
FFT_IncludeDCHarmonic=False
FFT_AutoScale_Harmonics="10"
PrinterAutoTile=No
PrinterBlackBorder=No
MonMaxShow=3
MonPlotWidth=21
MonExprXWidth=142
MonExprYWidth=260
MonRangeXWidth=90
MonRangeYWidth=90
AnimateWait=0
AnimateWaitTime=500
Save_For_Future=No
Reduce_Display=1
Reduce_Save=1
Num Out Header Left
Num Out Header Center="$MC\n$user\n$company\n$Analysis of $name"
Num Out Header Right
Num Out Delimiter=32
Num Out Write=True
Num Out Write Models=True
Num Out Write Zero Models=True
Num Out Write Undefined Models=True
Num Out Write Limits=True
Num Out Write Values=True
Num Out Write Operating Point=True
Num Out Font=Height=-15,FStyle=0,Color=4,Name=Courier New

[Monte Carlo Options]
Analysis=Transient
Status=Off
Zero Tolerance=False
Distribution=Normal
Number of Runs=10
Seed=0

[Monte Carlo Options]
Analysis=AC
Status=Off
Zero Tolerance=False
Distribution=Normal
Number of Runs=10
Seed=0

[Limits]
Analysis=Transient
TRange=5u
TStep=0.01n
NPts=51
Temp=27
RetraceRuns=1
OPT=120
StateVar=Zero
RunOption=Normal
Temperature Type=Linear

[WaveForm]
Analysis=Transient
Plt=2
AliasID=4
XExp=T
YExp=V(SAL)
XRng=AutoAlways
YRng=AutoAlways
Options=LINEARX,LINEARY
Line Color=2
Text Color=2
VFmtX=3
VFmtY=3
ScaleFactorX="None"
ScaleFactorY="None"
ScaleUnitsX="Auto"
ScaleUnitsY="Auto"
SFmtX=3
SFmtY=3

[WaveForm]
Analysis=Transient
Plt=3
AliasID=3
XExp=T
YExp=V(AD9833)
XRng=AutoAlways
YRng=AutoAlways
Options=LINEARX,LINEARY
Line Color=13
Text Color=13
VFmtX=3
VFmtY=3
ScaleFactorX="None"
ScaleFactorY="None"
ScaleUnitsX="Auto"
ScaleUnitsY="Auto"
SFmtX=3
SFmtY=3

[Limits]
Analysis=AC
FRange=1E8,1Meg
NPts=51
Temp=27
MaxChng=5
NInput=NONE
NOutput=2
Sweep type=Auto
OPT=120
StateVar=Zero
RunOption=Normal
Temperature Type=Linear

[WaveForm]
Analysis=AC
Plt=1
AliasID=1
XExp=F
YExp=db(v(VE))
XRng=Auto
YRng=Auto
Options=LINEARY
Line Color=12
Text Color=12
VFmtX=3
VFmtY=3
ScaleFactorX="None"
ScaleFactorY="None"
ScaleUnitsX="Auto"
ScaleUnitsY="Auto"
SFmtX=3
SFmtY=3

[WaveForm]
Analysis=AC
Plt=2
AliasID=2
XExp=F
YExp=ph(v(VE))
XRng=Auto
YRng=Auto
Options=LINEARY
Line Color=9
Text Color=9
VFmtX=3
VFmtY=3
ScaleFactorX="None"
ScaleFactorY="None"
ScaleUnitsX="Auto"
ScaleUnitsY="Auto"
SFmtX=3
SFmtY=3

[WaveForm]
Analysis=AC
AliasID=-1
Options=LINEARY
Line Color=2
Text Color=2
VFmtX=3
VFmtY=3
ScaleFactorX="None"
ScaleFactorY="None"
ScaleUnitsX="Auto"
ScaleUnitsY="Auto"
SFmtX=3
SFmtY=3

[Limits]
Analysis=DynamicAC
FirstValueDisplay=Mag
SecondValueDisplay=PhaseDeg
PlaceText=True

[Limits]
Analysis=DynamicDC
PlaceText=True

[Optimize]
Format=3

[Watch]
Analysis=Transient
Format=3
ExprPercentWidth=80

[Watch]
Analysis=AC
Format=3
ExprPercentWidth=80
