<?xml version="1.0" encoding="UTF-8" standalone="no"?>
<svg
   xmlns:dc="http://purl.org/dc/elements/1.1/"
   xmlns:cc="http://creativecommons.org/ns#"
   xmlns:rdf="http://www.w3.org/1999/02/22-rdf-syntax-ns#"
   xmlns:svg="http://www.w3.org/2000/svg"
   xmlns="http://www.w3.org/2000/svg"
   xmlns:xlink="http://www.w3.org/1999/xlink"
   xmlns:sodipodi="http://sodipodi.sourceforge.net/DTD/sodipodi-0.dtd"
   xmlns:inkscape="http://www.inkscape.org/namespaces/inkscape"
   width="320"
   height="240"
   viewBox="0 0 84.666669 63.5"
   version="1.1"
   id="svg8"
   inkscape:export-filename="C:\Users\ianle.DESKTOP-IN895BI\Desktop\TECNICAS DIGITALES 3\PROYECTO\GENERADOR DE FUNCIONES\Imagenes\Menu DAC.png"
   inkscape:export-xdpi="96"
   inkscape:export-ydpi="96"
   inkscape:version="1.0.2 (e86c870879, 2021-01-15, custom)"
   sodipodi:docname="Menu DAC.svg">
  <defs
     id="defs2" />
  <sodipodi:namedview
     id="base"
     pagecolor="#ffffff"
     bordercolor="#666666"
     borderopacity="1.0"
     inkscape:pageopacity="0.0"
     inkscape:pageshadow="2"
     inkscape:zoom="1.8200453"
     inkscape:cx="131.8232"
     inkscape:cy="122.15741"
     inkscape:document-units="mm"
     inkscape:current-layer="layer1"
     inkscape:document-rotation="0"
     showgrid="true"
     units="px"
     inkscape:lockguides="false"
     inkscape:window-width="1366"
     inkscape:window-height="705"
     inkscape:window-x="1358"
     inkscape:window-y="-8"
     inkscape:window-maximized="1"
     showguides="false">
    <inkscape:grid
       type="xygrid"
       id="grid12"
       empspacing="1"
       snapvisiblegridlinesonly="true" />
  </sodipodi:namedview>
  <metadata
     id="metadata5">
    <rdf:RDF>
      <cc:Work
         rdf:about="">
        <dc:format>image/svg+xml</dc:format>
        <dc:type
           rdf:resource="http://purl.org/dc/dcmitype/StillImage" />
        <dc:title></dc:title>
      </cc:Work>
    </rdf:RDF>
  </metadata>
  <g
     inkscape:label="Capa 1"
     inkscape:groupmode="layer"
     id="layer1">
    <rect
       style="fill:#000000;stroke-width:0.264583"
       id="rect16"
       width="84.666672"
       height="63.500004"
       x="-8.6625414e-06"
       y="2.220446e-16" />
    <text
       xml:space="preserve"
       style="font-size:4.93889px;line-height:1.25;font-family:sans-serif;text-align:end;text-anchor:end;fill:#ff6600;stroke-width:0.264583"
       x="63.991077"
       y="8.5053978"
       id="text36"><tspan
         sodipodi:role="line"
         id="tspan34"
         x="63.991077"
         y="8.5053978"
         style="font-size:4.93889px;fill:#ff6600;stroke-width:0.264583">Generador de Funciones</tspan></text>
    <text
       xml:space="preserve"
       style="font-size:4.93889px;line-height:1.25;font-family:sans-serif;text-align:end;text-anchor:end;fill:#ff6600;stroke-width:0.264583"
       x="21.950403"
       y="18.894299"
       id="text40"><tspan
         sodipodi:role="line"
         id="tspan38"
         x="21.950403"
         y="18.894299"
         style="font-size:4.93889px;fill:#ff6600;stroke-width:0.264583">Frec</tspan></text>
    <text
       xml:space="preserve"
       style="font-size:3.88056px;line-height:1.25;font-family:sans-serif;text-align:end;text-anchor:end;fill:#ffffff;stroke-width:0.264583"
       x="61.030605"
       y="18.577126"
       id="text44"><tspan
         sodipodi:role="line"
         id="tspan42"
         x="61.030605"
         y="18.577126"
         style="font-size:3.88056px;fill:#ffffff;stroke-width:0.264583">_ _ _._ _ _ Hz</tspan></text>
    <rect
       style="fill:none;fill-opacity:1;stroke:#ffffff;stroke-width:0.529167;stroke-miterlimit:4;stroke-dasharray:none;stroke-opacity:1"
       id="rect112"
       width="15.875001"
       height="7.9374995"
       x="8.7312498"
       y="13.229167" />
    <rect
       style="fill:none;fill-opacity:1;stroke:#ff8300;stroke-width:0.264583;stroke-miterlimit:4;stroke-dasharray:none;stroke-opacity:1"
       id="rect1013"
       width="81.672379"
       height="60.731014"
       x="1.587503"
       y="1.4525596" />
    <text
       xml:space="preserve"
       style="font-size:4.93889px;line-height:1.25;font-family:sans-serif;text-align:end;text-anchor:end;fill:#ff6600;stroke-width:0.264583"
       x="79.448853"
       y="27.638271"
       id="text1037"><tspan
         sodipodi:role="line"
         id="tspan1035"
         x="79.448853"
         y="27.638271"
         style="font-size:4.93889px;fill:#ff6600;stroke-width:0.264583">DAC</tspan></text>
    <image
       width="14.552084"
       height="13.229167"
       preserveAspectRatio="none"
       xlink:href="data:image/png;base64,iVBORw0KGgoAAAANSUhEUgAAAOEAAADhCAYAAAA+s9J6AAAABHNCSVQICAgIfAhkiAAAIABJREFU eJztnXt4FFWe97916epLgiFAnIYGVJRmHFsNRlknjrrgLEyYG6IDXkB3J7g6SMB3zfgKL+v6jkyc UXxWLjLuGuZmcAaeCcLogmZeEi9DxhGRKEFMQBBiIKSBJCTd6UtVnfeP6m76Un2vviQ5n+fpB7q6 6ndOVc63zu13fochhBBQKJScweY6AxTKSIeKkELJMVSEFEqOoSKkUHIMFSGFkmOoCCmUHENFSKHk GCpCCiXHUBFSKDmGipBCyTFUhBRKjqEipFByDBUhhZJjqAgplBzD5zoDlJGD6PuXhQRCJAAAw3Ax r/Gf5z+XRezzhyIMXU9IyTZi2HcWUkBcMiTfMS7kfB4ACAAmGznMLlSElKzgF5IMCXKQwBjigZcB dFFKIWEE8AQQGUCEBzyEYdd8G273Q8kBgZoqBgzxQLxwDujrhvf8aZDuQ5D6u+HtOQudqxui2A+I YXUkz0MUxoEpLgYrjAEKJoG7rAwomQzRWAC+YHRIrRqoLQHIjNLkJYwQ+E0OqnHzibg14ZYtW/Cn P/0JgiCklZDH48GMGTOwcuXKtOy0trbiiSeewKhRo9Ky46e/vx9/+MMfUFRUlJadhQsXapIfj8eD u+++G/fff78m9jKKr3nob0L6azgegEQ8wLnj8LS/D/H0Ebi/3A954Dh0rmOBy2UW0PHmCLMyGLAI LZZesQusDPCyksag6TKYJtwM9rIbwEy8Esapt0DUlYAhnoDwWEgRtvNRhHFrws8//xw7duzQJDG3 2522CEVRxO7duzXJjx+Px5O2jW3btmmQE4W7775bM1sZhfH373zi89rh6vwMvZ99CHnfy+CYfsBt BwDoRQ7EUAJZbwlczgGQo5gOP87plOsGGT0AQCBuiF81gf2qETIY9PAFGFX8dfCzKmEYfxWYYhtE X74Y4gHHCBCRn9MBcUVoMpk0S6yjo2NYdq77+vo0tTdhwgRN7WUSFhLI2aPo+fDP6D/8Fi453wi9 yGHQdBk4WQDrq+n6DYXgZRkG2QkAkOOMikZD5zoGXuYgshIYYbwvDwQmaRCD5z6D8Xd3o89oRv8V czHuprkwTr0F0JUAyN++V9x8TZ48WbPEWltb0XehL+2mX75x/PhxTe15vV5N7aVDcJ8ruEYBAOZs G+z1P4fu5KvQixz0AIjBjEHBBIPshMxwAbEVigMAUhefH69hCgZZFrwsQyBuuBg9BOIGSyQYiBOe gjHQSRJGf/ZriJ/9GucMU2Ga8ziMN/0Qok+MDFFaPsH3wuawv5j1l8Px48dRWlqa7WQzSnd3t6b2 dDqdpvZSRWm+XZzTI75CK375Lly7NkDqrIdeBhi9BVJQlgXijhBbuuILti1Iod+D7XMyB5kBYFRq YI70wfXGQ+j/y7Mo/OZSmGY+AFFXAp4o/VYGvvlHwuWshRa3iax10+ivf/2rpvbygZ07d2pq76qr rtLUXqr4BzYII4AwArieVpz+3b/C8co/gnTUQ8eb4TVMAUsksCRyECRf0PEToXMdw+C71Tj1i3J4 m2sB0Q7CCGAYDoRIkJnc5T+uCC0WS7xTkmLXrl2a2ssHtm/frpkts9kMg8Ggmb10kcGB99rhaXgB 5zfMQuHnrwTE52JNEOTBkGZnXkFksCAQOQKvYQokYQqMzqMQdz6C4+vvgfjlu4FpDJLDl0jWRbh7 927Y7XZNbeaSlpYWdHV1aWbPYrFoOhiWFERpgvr7STI4iF++i7Pr74W7qRo6iQOjt0AGA4PshEF2 Rkwl5BUMG3g5CPIgDLITjDAektGM0WcbMfhf/4izWx8H71VqRRkSRPgdCrInyrgiLDAVwGq1apro 1q1bNbWXS+rr6zW1d+WVV6KgoEBTm4kiMxJYSOABuODBYP3/huu394M7uweyseRibecr3HlbA6rh FySjFHlGb8Gg6SqYDvwKA+vuBE5+AhlcoAkuZ3GQJv60CQN8+9vf1jTRqqoqTe3lCrvdjtraWk1t 5nLQihDFpUzsOw3xxdkQP3oOLJEgG0vgZobXiDYAGJ1HlbnL/i8w+FIZBt97ATK4QBM8WyQ0d3n1 1VdrnnBTU5PmNrNNQ0ODpk1RACgrK9PUXjIQRoD85Vs4/+K3gHNfKE1PhgMnC4EphuEEI4yHzHBw sSYQQwk8b1fj3B+rwHvtgemMbJCQCGfPnq15wo888ojmNrOJw+HAz372M83tZuKFFw2JeAJ9HxGA 55NX0f/7B2B0noCbLQw5d8g0O5PB1zT1T6l4CsbCdOBXOL7+HqDvNGRIcMH3jDLY9U1IhBaLBWZz pI9fOrS3t+P111/X1GY22bx5M9rb2zW1WVZWhkmTJmlqMxaEEcCCgwjA21wL9x8fAABlwhu9WctH vjBq0AhGGI/R/Y3o/t0PIPd1w0AEsN7zGU03IREWFBRg/vz5mic+f/78ITlS2t7ejhUrVmhu9667 7tLcZix4ICBA1xsPgZc56L16QBo7PGu+OLh1bjh5AQwsGNV5AK5XfgTxwmmIupKMziMm7M+q9eCM n6effjojdjMGAR577LGMmK6oqMiI3WD8TSv/cLxfgDp+IgZNl0FkJejQC4lN36k9JUikSzdLJOV4 2G8enzO3VnCyAJPoAUEnPIapEPuPoe/X3wZ/ttM3YJMZISYswm9961sZycCmTZuwZcuWjNjOBM/+ 4lnNV3EAyiT91KlTNbcbDks4yIwyCur55FX0/+VZAIDIEcUFzDeUz8npLV2LnQcJvMQEPn6PG5ZI YEEifvNPLXhYIwAEfjM6T2juqSNyBAws0KFXSe/sZzj12jxlLpFIgTlELQWZsAhLSkpQWVmpWcLB LFq0aEiMlr7++utYtWpVRmwvX748K/ODEjzKHNjJTyC99i8QiDvrrmcu1gQnL8Ctc8Otc8MrdkHy dMEr+j9fBT6SpwvE3QlusCsgOicvwMkLGDRdltFms0DcipfN6Y/Q+8pPACjzh/6pHK1IKrxFU1MT Zs2apVni4bS1tcV1DGhpacH06dM1Tbe7uxslJbGHpBsaGjBnzhxN0w0mkXtPG6KIkFw4h75110Nw nFfmyRhOaeoxmV1txxIJXrELgqgUYA8vAeO+AWHy90AMZjCcDvwlBmD0OHD9F5vDF86dgH7wLLw9 ZyH0tsHdszewwDewpClDeZfIKOjlARDPaXB3/BL6f6pSQm5omEZStmbMmAGbzYbW1lYNs3CRadOm 4eDBg7DZbBmxnyqZFmBZWVlGBegPPyHBA07sw/HaRbD029FbOCWwDCjdGoUlEmQwATEMCi4UuHVg XMrAm8hK8F76DYjj74bp69+FceK1kMeZ4y4fEgGMRmh4CoOjFzh3At7zpyG2boHz+AcwOo+iQAQ8 holw8gI4ph866aLtVO5PYj3QSb1w8iZwujEY9ZdqeCZeCd035ik2ffFy0hVk0oGeNm7cmHGPl8bG RsycOVP1t2zXhFu2bMGiRYs0TS+cWPerBX4RigB6dz0P7v0noOMnQmQlzWoQT9CKd5ZIMDi74DFM hH20FeNumotR37gH0tgScIy2fU0RAE8Az4m3cO6z94CW/8bYnnMAgPOmG8CyvRBZFibRARYk5ZeN xHqg9+rh5AWMfXQXyLhpgTAe6YZiTFqEfX19GD16dMoJJsq6deuwfPnyiOPZEqHD4cAvfvELrFmz RtO0wrHZbDh48GDG7PvXBMrg0H+oAaibA17mIBm1nff1r1iQPF1ghPFwX30Xim/+LoTLvgPRt07P v5gWgGZidPkjsPkiNoiOXniPfICuPc9jXPe7ABC417RqfCLDyRdg3IWj8Fjvg3HJb5Rmqc+7Jp3a MOnXYFFREdatW5dGkomxYsUKzJ07V/MJ8URobW3F7NmzMy5AAFi/fn1G7fsdknmvHbrdioePZDRj UHCBl7RbxUo8pyGDgef6ZRhV1YSv3bMB7OXfgcxIYIgHPAE4COAYQdPa0ABBeckwklIrmUzQlX4H k/9tNwz//D7Ea+8FN9gFlkhwsamvTpE4EZd4XHCaxsP95Wtwvr9BOc4XZb85Cii1RGFhYfwTNWLd unWorKxEQUEBWltbce2112pqv7e3F0VFRejo6MD69euxdu1aTe1Ho7y8HHv37s1oGpIv+pin4QW4 m6rBBAVaSmswxnetREZBcB0Bc9VC8P/0rxAu/xZkcIFQGMq5StzQ4OhnGQsl4a8RfV95rx2Dh/aj 540q6F1HAX0JOIkPDOokc/+BmtQ3XzmqqinQLE2HlIP/ZqOvFIzFYsETTzyBSZMmae69c+DAAdTX 12el5gsm031BwFcYT36C87+ZH4j7ogUeRg+j8wQAgL/3TTCls8DjYqjBfAktGCzG/j+vhefj5wKR 29KCyGC+/l0U3PtK2vebVgTua6+9NmMjpcOdyspKzZdBqSECcL1yP8SvfPOwGg3EEHcnesfNwuQH N4GMmxYRiyZfIpv5WwIBF73PdoD7zZ1wmcxKZABfjJpUMDk6IT/6DvjLb0/rftMSYSaahiOFROYm tUA8+Qn6/qsUOt6sWS1I3J3QTbkPhf/8YiDgLsNwgQnskKZojgnsbUGUvImMEiXuzK++B6PzqNI8 T7FZTtyd4C3fg25ZPQxI/X7Tei3abLasDNIMN+rq6jImQCloBFIE0L1jSaD5lY6vJUskeBi9Mshx 3RIYHtoC+EYFOd9qDB4IfM8XWPimDxhlnhQAuHHTMH7Z65DG3QFusAvS6OLkB6mIDNeosUDHbvAn DweavSJC/waJ5TFNllctR3l5ebpmRgyVlZUZDXHvj6UpAuB6WmE8/ZFm7mhG5wk4p/8Ehfe8lDfN zWTgfLWVRDxgim0YveRVeMzTMOrUZ5DZ8L2iYiNxIgS38iI98/a/BUKCMMQTSCdR0u8gMMAf//jH tM2MBKxWK1544YWMpuGfFwSAC29dbKXIDJdW/8crdgGTKvC1u54KBEUaivBQ4oyKAFA0HmMXN6B/ VIni7ZMkHPrACONhOtYI6WxbYGBKTNKUJr30SZMmobGxUQtTw5r6+vqMRx/3D5DwXjvI5/8DRm+5 OD+mskwoIZtEgr74Fox6+NeBPmA2AyFphX9NIEs434imBHGcBaYf/B6SeBogstJkT+A5cbIAwpyG kxfAyxzO/r+NABSBM9lujvqZOXMmNmzYoJW5Ycfbb7+dFZ9YfxzNwX07QTynAVyMUp3K4ANLJEie LnBzq0P6gEOxORqYRmAu/p8hHuhKvwPetiTwvBKFgUVZaWG4FHz7VvBee0ovJ01dz5ctW4bVq1dr aXJYUFdXl5E4PWooISskuI69G9hGLFVYIoFx2eG5fhn03/i+RjnMH4IFU3jPS4Be2XBG4sTkBrEY FuygHYNHFMcLkuTAlObrP5555pmMrTsciqxevTrrew3KJ1uBo3WBXYtStgMGnoIxuHTOw0Oy+RkP HspgDQ9FOPo7f6/41ZJRgd2jEoUTzHB9rMSg5ZOc9MvIIqza2loqRADV1dV45plnspomD0A+3QZ+ kIPIpRcijAWBaF0IUpy9CHDZRIYUGERhIUF/3UI4DNdDkAfhxeik+tCszMP7RTPQdzowFZLwtUmd nQQjXYh1dXV4/vnnc5K2JF1Q/k0zTgzjsqPo5rtDIlMPJ9igtYAsOBBGwCW33AeT8zQE1xGwIKGh N2J8nLyguPH1dSfdHM1o/7q2thalpaXDJuJ2otTX12ckOl02YYkEpuRmn0O2MuCDERCBzXjTHJw5 /gmMl+jBDSTeJNUZWTBnJ8F7/jT0k21AEs33jA9yLVu2DFarNaMr0/MFs9mM3bt3D4v9FyVPF/jr qi/WgiNAgAzxQCq24dKHfxOIx5ooRp+PKgB44IEhCRFmZQvv2bNno62tbVh71lRUVODTTz8d+gIk shINTeYgfv0fAoeH48BMOH53O5ZwAFEGWBL9+K/lAejyYWBGDavVioaGhmE5hbFhwwbs2rUrKw7Z GcU3EOH3HikwKfOC+bIsKRvwgLJjb7IfXGxWJus7mzURAkok72eeeQYHDhzIfGSxLFBeXo62tjYs W7Ys11nRhMBegwyrREIbe0VSTTJKamRVhH5KS0vR1tY2pFdg1NfXY+/evcPiZRKOh9GD1V18ow9V P9GhQk5E6Gf58uUYGBhATU1NLrORFOvWrcPAwMCQH/1Uw8sp4R44pj9wzN8cHYpuakOFnIoQUJqo K1euRHd3d96K0Ww2o6amBgMDA1mLlE0ZOeRchH5KSkoCYqyrq8uLkdR58+Zh+/btOHr0KFauXDmi xCd7QfuDWSKt8BaZpqOjAzt37sSePXuwY8eOrKS5YMEC/OAHP8Btt92W1b0CtWSwuRbizkfgKRiT 1MYuEusBJykNT0k8jbE/z9uikZcEr+VMZkQ5oaZ+Q0MDBgYGwDDaxalMFKvVigkTJmDmzJl46623 MrIjEqCseC8tLcWECRNQWFiIjz76CB999FFG0ooGIQTFxcUZj8AWDU4WAoVIwsVC5Z+4Vi0s/v0t Og6DOJJzeh5OEGMfhMu+AwlS0lMUCYmwqqoqJ0F4s8nmzZtznQUAyqR/rkQYjrL/QxwYgAGH/jef Aemoh5w3HZzsU7SqBygYDSnJQFcJiXDUqFEpZ4ySHEP1WfM6PdwsAP0Qd1hIFWlsypfSkWdKyshh QW/17ETAm8MM5RC37hwYkwlIIdwjFSElKsEiU/qKQYMNvnDzgX8ByKw4Ive6B5EBtx0MwwUCICfD CG7BU+IxknxGcwkVIYWSY6gIKZQcQ0VIoeQYKkIKJcdQEVIoOYaKkELJMVSEFEqOoSKkUHIMFSGF kmOoCCmUHENFSKHkGCpCysgmxY1TtYSuoqCkhn+jTUaJzi163SCerlznKilkFnAbrkKhOAAXa0pr O/F0oCKkpA0PoPDBWgC1uc5KUvCCsvhxYN2dMPR/kfYyLBkcmBRitCYkQrc7N2+IYMxmM7q6Mvum zUYa8fB40tvOLFfwBaOHXJBg0bdUy8UYkNwyXHVYSEglNFZCIty1axcGBwdTMJ8eRqMR586dw6FD h7Bly5aMBXkCFAHedtttWLhwIaZMmYKxY8fm7J6HIjKklBa05hLW16Q2cCLcnAQuze3FUyUhEeYi 9F9LSwteeeUVvPXWW2htbc14el1dXdi2bRu2bduGsrIyVFRUYOHChbDZbBlPezjAEg7J7MmXD4hI IJBVFsirPmFfXx/efPNN/Od//if279+fs3zs378f+/fvx5o1a1BeXo7HH38cc+bMGVHBf5Mm+9Ew 04bHxQDHnMTn7B7yQoQOhwObN2/GihUrcp2VCJqbm9Hc3AxA2QJ73rx5VIwUTcntPCEB1q9fj8LC wrwUYDiLFi1CYWEhtmzZkuusUIYRORNhQ0MDGJYZEuILZ9GiRZg2bRpaWlpynRXKMCDrIrTb7Vi4 cOGQ38O+vb0d06dPx7//+7/D4XDkOjuUIUxWRdjQ0IBLL70U27Zty2ayGWXNmjWYNm1aVkZwKcOT rInw2WefHfK1XzQ6Oztx7bXXYuPGjbnOCmUIknER9vX1YeHChVi1alWmk8o5VVVVePTRR5GS2wRl xJJREXZ0dOCOO+4YVs3PeGzatAlzvzuX9hMpCZMxEba3t2Py5Mk5nXTPFbt378btt9+Ojo6OXGeF MgTIiAg7Ojowbdq0TJgeMuzfvx+TJ0+mQqTERXMR+mtAisKMGTNo05QSE01FaLfb8f3vf19Lk0Oe rq4u3H777XSwhhIV7URIgAcffHDYb6udCvv378eSh5bkOhtJM9TWBw5VNBPhT5/4aUbX+w11Nm/e jPXr1+c6GzHxMHrIvqUErKysFPdD9yrMHJqIcPv27Vi7dq0WpoY1K1asQFNTU66zERuGDQiRkh3S FmFHRwfuuusuLfIyIli8eDHsdnuus6FKINARwwL6PFnnNgJIW4QPP/ywFvkYMXR2dmLlypW5zkZ0 iKw0S9mSXOdkxJCWCDdu3Jj1fmBlZeWQsBmLzZs3o6GhIatpJgzDwug8ketcjChSFqHdbkdVVZWW eYnJhg0bMDAwgCeeeEJz2+vWrUN3dzeqq6s1tx2NBx98MG/nD0WWjopmk5RF+PTTT2uYjehUV1fj 5MmTWLZsGQoKCuB0OjVPw+l0oqSkBM8//zxOnjyJBQsWaJ5GOF1dXXk/WkrJDimJsKWlBZs2bdI6 LyFYLBY0Njbi+eefz2q0t0mTJmHr1q2or6/PeFqrVq3K20EaSvZISYTPPvus1vkIoby8HIcOHcLM mTMzmk4s5s+fj7a2NpSXl2c0ndraoRW1mqI9SYuwpaUlo0uTli5dir1796KoqChjaSSK1WrFjh07 Mto8XbVqFfr6+jJmn5L/JC3CV155JRP5AKAI8KWXXsqY/VQoKSnB1q1bMyrETDftKflNUiLs6OjI WIHJRwEGs3XrVpSVlWXE9kiIOkCJTlIifP311zOSifLycjz33HMZsa0le/bsgdVqzYjtvJ03pGSc xEVIlNpAa8xmM3bs2DEkoloXFRXhjTfeyIjtzZs3Z8QuJf9JWITtR9oD4eC15He/+x1KSoaOi5TV akVdXZ3mdrdt20ZX4Y9QEhZhJppLlZWVmD17tuZ2M839992PiooKze3u27dPc5uU/CcxERJlj0Kt yfR8Y8ZggJqaGs3NZqK5T8l/EhKh/axdc0ft1atXD6lmaDilpaWYN2+epjZbWlry1p+UkjkSEuGB Awc0TzibztKZ4j/+4z80tdfe3o4jR45oapOS/yQkQq1jh1ZWVuaFR0y6lJaWat43PHTokKb2KPlP QiL88MMPNU102bJlmtrLJY899pim9jIxAk3Jb+KLkAA7duzQNNHS0lJN7eWS6dOna2rv+PHjmtqj 5D9xRWg/q+1Sm+HQFwympKRE05UWn376KXXoHmHEFWFnZ6emCWZ6aVAuuPfeezWz1dnZiQsXLmhm j5L/xBVhd3e3pgneeOONmtrLB6655hpN7Q0ODmpqj5LfxG+Oarzye8yYMZraywdsNpum9r788ktN 7VHym7ihJXt6ejRLrKKiYkg4aidLyThtnQ50Ol1a13PcJXD5gzURWYkjmgAskSAzHDjBDBfvTSsP Qw0Pa4RBTj1+kUeYAkIkMEzykcrjivDMmTMpZWpEoXHAaq83dQGIACTpAniZA+PVQ2ZFgCQWPU3y dIHRWwAAgpi1ndRzBwHAAO6eM9B5jkH23XvydmQI8iA4sQ+iriTplfJZDbKsdd9puPL++++n7NjO A/AC0MsS+uWvwIrJXS95O8GJHFjjCAh7yCjPyznlVhRyN4Lr7U3ZlMTqIfGpOaAwhJCYm3a1t7dr FmbQZDKlvSi2r69P87m0qVOnpt1Mbm1thSgmWeKjMHbs2LQizIl9pyH2tMPDcjBhVMp2+MnXp3zt UEAiHngZwODtg0tXBB5CyrZ4r91XC0qQwSVVu8UVIWVoIfsKgR+6n0R0/Fu/seAgIr1n5X/98r7/ UxFSKEOIEdD7plDyGypCCiXHUBFSKDmGipBCyTFUhBRKjklqVNY//M0TQIIHHJPcvIoMKepwsAgE 5lhY33nZxp8vOYX0k71GIh4wDBd1TkkEwPs8OpLF4XDg/PnzyV+YIAaDYUjHB8o3Iv/+/j+8T2jB cGIfCF8EMAK8QFLFVBGZUvhEBiEFlhAJLMOBEAkI+tefH5m5KM5U/fMSgfeeB/gSsKLyr8xIYAkX eB4yE+pFQnzuYIQRkmpSiABY3z0wxAMJCLkn1nseYhqTxzt27MCiRYtSujYRKioqMhJ9b6QSIUKZ 8b3RGUD6+w543l8P8L7TRBHgeTjM12LcwheSekuzkMD0HMb5Xz8G5kInxOKvBX5zSTxGL3kVzCVj ASCkhhUZYLB+FZiOv6d4i4lzgXVgwn07II6zgCcIeRnIjISz/9cKU1GkJ0vBgxshFduSEiIhEi58 9g4G9/wfXCKHeuu4rN/FmLn/pqSbo1ZBLPR6fa6zMKyIFCE4yFBE4+7phnhuLzjBrPzGcJBYD2C+ FiTppigHsGMhDxyHwLgh91z00+PBgPFeAGHGq2bQ23MWbE87wLBgE3RGTgWjpyvkO8NwgWYyIRKM zhMQ5UGwUPwbBvhC6Ekfev68HuMf/O+E0+EJIDIC9C4OBR0fwWOYqDhaQ3Gi1n1tqq/mBzyQYMgz EVK0JebLm0he8HJQM4lIYAftMOlMYIgnxpWRMMQDxnsBRucJZXlNSCYIiO4SAKFvBb9bEQAQz2nw EgNW5kM+AODlpMBHDmuqhp8f6wMAoo4F42syyyqF3y9AVuZRKA5AJ3EY/dmv4W2+uNmnDAmxvEhl RlKeB+eFgwdELtRpiRV8ay4ZQKACHPZE1IR+3zcWHBhOBw8vgQsu2HoAXj7pmpAwAhgAIiuBYVgE ZEjkiwUbkq8Wjix4nGCGDDFSZAQQHOfBCEotKrKhQpS4rwAALkFp6ho9huiZ9CmHYTgQBA+McJB8 LwS/bZkj8PeKWUMJevb8Eoarbw40S2ONeCnN/dD7CNj1vRZ5KP3nZPub2cDtduc6C8OKvPbvDRaj 7OuAehg9OKYfnKy8BGSGA4xmODkDeFmGQEILiEy+Do7px6hBBoLrK/SPKglcG4zEegLtgpCBoQSQ GQ7jLhxF7//8EkWLfpvkXWaP+vp6WK3WtFd7mEwmjXJEAfJchP5BCV3xODC9UwD4MxzWd+R5CBIP vv/zwOpwPzr0wsWY4CwZA7fXihKi/hbnAVxgigDeGKgJk8FZYAF/8A9wfTIbwvWL8672ApQwHJna X5GSOnktQn9NaJr/TMzziNMJo8kE6cMdcO6KDMZrmnAzCv/5RYgeHZgob3GG4VDoPQ9RNxoskvdi YIkEyWjG4I6nMdYyA+K4aSmtLcskHk9y/XhKdsiX8hGTeE4BYoEQqLmI53QgRAOgDNroAci6MeB1 cZqYupK0HoiH0cPoPAF7/c9x6cO/CQgw3bVqI5nW1lbY7XYUFxenvdj0tBgSAAAYwElEQVQ5URwO Bzo7O+F0OkNiLJWUlKCoqEjzPAz7sqGTFOEl289LFpnhAv1R/Zevwv3ZfOi+Mc83wktHONVwOBxY tGhRSFjNCxcu4ODBg2hpacHixYvR2toack15eTkef/xxzJ8/X/O87NixA1u2bMGnn34aM96uzWbD vHnzsHjxYk2a98NehNmEJRIGTZeBY/rhevVO6J48BbloPH3IMVDbYqGlpSXq9gLNzc1obm5GZWUl amtrVc9Jlo0bN6Kqqirh81tbW9Ha2oo1a9aguroazz//fFrpx+36sHK8M0YuvMQEPsDF2pCTBXCC GQNblD9s8HwnJRSz2RxxLJH9PebOnZt22g6HA7fccktSAgxn7dq1aQe0jitCOR+H+fIAlkgQOQIn L+Csfhy4wa7Ik840w9tcqzrpT0mPO+64I20bK1as0GQXrP3792PLli0pX09bSmngYfQwyE4Y/uV3 8PzXrRFSY0HgfvspCNZbgXHTcpLHYAQh9Whi+YQW+1s2NTVh8+bNqr+VlZWhoqICN9xwAwCgoKAA +/fvx5tvvhlVtIsWLcL999+fUl6oCNOAkwUwrhMwTv4WPLevhbupWhmZJTJcrAkG2QniOQ17/c9h fvj3F0dJU1yilC7PPfcciouLU7rW6XTiySefzMropB+r1YqnnnoK119/PU6dOoWdO3di06ZNKRf2 YF5++WXV4zU1NVj55MqIv8/s2bOxcuVKNDU1YdasWarXtra2prQlAhVhGnBMP0Sj4gdqmP0YnAd3 gzm/BzreDIG4ITMcGL0FBcdeg+fv3wP7DwsUB4QMjtLGItqbP1F+8pOfZE2ENpsNu3btCqRns9kw e/ZsPPTQQyi9Pr39LTs6OrBt27aI45WVlVi5cmXMa2fOnIm6ujrVpWKp7ttCe3waQJxOsOBQ/OBL EEQOLtYUstpDMlwKx+6FYM62QQYHKUnn95HI+vXrVQVfWlqaditi3759qscT3XX5tttuSy8DYUSI UJsY0iMTMm4a8N1fgvMcC/i6AlA2ZHEDg6//DLzXDi6NSM8jhZkzZ2bM9pQpU1BTU4PKykqUlZUF jifalLzkkktUj586dSql/ERdReEnfIpC9ka5cKRDAJaRoLutCvj0HRD7R5BxcfBG1lvg/vI1cPtm Qle+BCydtohKRUVFRu2XlpZGbNme6O7ILS0t2L17t6b5UVnUK4GPMaTOygB0ma0vh6KblxKyA0pI iu9Vw/Xb+0HcneCMJQA4gMjgdBa4G56GYL0Vcg5GSysqKjBqVGp7U/T392dtdPXWW2/NSjrB+Edb HQ4HRFHExx9/jJ6eHpw6dQqHDx/Gzp07Nd+12k/SZd2/yp4SHf7y28HN+l8Qd1dDJ3GBVR0skcC4 7Ojb8RxGL/lvuHQseJmDh4wCx/RnPF8vvvgiXUWhgt1ux9atW7Fnzx5VD55Mk1KF4+05q3U+hjzB keIAQHdbFcSTLZAO1YERxoOXOYgsA4/pMui++DXczd9EYfE1ILKEQdYDLgs7ggyVVRSp1tbJ4nA4 sH79eqxatSor6UUjYmAmeCEtf4khEN5CYj1wckYwLmUYNtUGabA9JT0CF2sCb+KHtGcJ61sxwYLz /V+A8VtLILPKLrAiKwV2zOUEM3r2/BLnP3kNzgJLxELkkU42amu73Y4f/ehHORcgEGeKguN8o0BE BicLMEmDAIC+vi+TTogHcOHMCQC+1fFBq9vVIpgNdVhI4C+/HcKctUpcHZ8ABeKGDAYm0QGmTQkb mMngVRR1li1bltQAS1lZGaqrq1FXV4cDBw5ompeYzVFJfwk8vAQdiBL7hUgghhIU97eB99oBXXIB YPWdB+FmQwucDAayMC7lXU7zHdOtVejZtxvChUMhK/5ZEKUGJNRDPts0NDSoTtb7mTdvHu644w5Y rVZcfvnlsFgsKDAVBOYnU52Uj0ZMEQoTr0BvwVjo3IBERgFMPzyMHqMHjoEMnAFTnJwILxz/BP6I lbzEBKKMMcXFIYGjhtrIqBoyODC+QE2jl7yKwZpJgNE3qMWwcDF6RYTBQa8oWeHFF19UPV5ZWYkX Xnghrl+qy+XSND+xm6PjpqHArcMAXwiInwMADLITvYVTcOpPKyDCHxpfgkQ8gf/7v/s/AEB6WqH/ 8lUwegsEeRAyK6KXLwHn6oZw9V3ggUCfajjAQ4kIwAPgi8aD/+HLIO7OQNOT9gNzg8PhUG2GWiwW 1NbWJuQYfvjwYU3zFFOEIgDmugdgdB4Fp7PAwyj1mEF2wvBlI7zNtSBEGRVkGC4gINb3nTACCCNA OtuGvj88DQBwckawIJAZDmP7D8LDSxAmXqHpTeUjwjcfAG/5HgDaB8wl0eb6nnzyyYRtxGrKpkJc 31HjTfcBUAZT/E7JAKDjzXC98RAG/vgoxC/fBes9r8TJJL5a0dEP5mwbBt97AWd+9T1wJ3b4hupl yAwHD6OHXpbgtD4Ebmzul/lkGsIIKLz/WQzwhYFAw5T84cyZMwmd19DQkLYjfDgxSwMPQJx8PZhJ d8FwZi8AwMWaIMANlkjwGqZA92ktvC2/gctoBj/6qsC1F/o7oXcdBSsDhYIZg6bLAABG5wlIhkth IE64WQ5FMx+AyAyPfmAseABisQ2jbn8E3t3VYLiLwajCwzRSMofFYlE9vmbNGixfvjzmblOvv/66 5rFtgDg1oT8sQ9G9TwcKib8v4w/lwOgtkIxmgMiQe9og9rRD7mmDSXSA01nA6C2QGQ4G2QlBHlTE yLCQPF3AjMdhmvytpEPqD0UUd0BlEr933CwQt9Is8jB6WjNmkYKCgqi+qRUVFWhqagoZ/ezo6EBT UxOWLFkSV4Dnzp1LKU9xRKiM8EnFNugXbIRX7AoMLvj7hwEYVhFq0L/BuFgTWBAYnSdA3J3wXL8M xrt+CR5IOqT+UMS/hImHgMt/vA6MMB7cYBcE4o7Yi4KSWX7605+qHt+/fz9mzZqF6667Drfccgtu vPFGTJ48GbNmzUqoCbp3796U8hNThP4RPgAQrp6LgofeQe+4WWBcdhhkZ9KJSZ4ueHgJ+plrla3V oF0QpGirErxcfgyCsJDAMQJYSMpLbc7P4OElOk+YA2bOnInKysqov3d1daG5uRn79++Peo5as3bv 3r1IOnQ7EhiYEYFAc5G//HZcsfyP4O74JQb4QnCDXeAGldqRlxhl1ybfh7g7A7+bHJ3gPMdArvwx Rv+vzyHMfhzEN3zPBvlbpoISKl8ZoZWkCwAA4u4MfATHeRD3BXBiX/KudkFLAv21td8u47LD5OiE 7AV4wRvXNiGhOzUJ33wAnOUumJynQ/LLyoDsOR84dyQ01XNBbW1tTCFGw2w2o7GxEW+++WbEb52d nXh9x+tJ24zbGeEBIHjTTl0JhNmPY8LMB+A9ehRizyGIx97FhfOfQ39uIHCe21QIYp4M1vIP4CxX Y8zk6SDFVweauMFRtdOZG/Rvvw1ACaj0/Vcuutv5cBSOhsQX+cSeelr6+a8huBEujRKQ6NYoF++X AyBBZgQU3fs0XIe/A4NpIjj3hRC7I4WuLpUodVmitrYWc+fOxcqVK9He3h7zXJvNhieffDIQ38bh cMBms0UEJ37qqacwe/ZsFBQUqJlRhSGEJFyB+tf5+bfsAtT3nlc7pvzrgY5AWVmuYaCjgEOAL0/+ mjV4Hwh/jR4vpH4s/BuG+ldL+F8e/uPJvEz8z+TiVnQXWwN+R3a/x02ywzZ9fX2qQ+4WiyWpwpEN Ojo6MDg4GHIsF/lsbW3FJ598gp6eHpw4cQJjxoxBQUEBJk2ahGuuuUbVqdxut4eEyfdjnWpNqnwn JUL/Lkmyb+dav5hkSL4dZYWQc/17unNiHyS+KDChr+kW0L7IZRLxgGG4iJUY/uac/7d0xiFDIg74 7i8gkiQjqAU/A9kn7GDbLDiAABLSe3FQ8p+kROjHX9v5B1X8BSaiEPqOBb/1gQzswx5DAOFpa026 UQBiXZ9KDUsZeqQkQgqFoh2aVhANDQ0Ryzy0CNSa77S2tuKdd94JBNa95pprIgIJAUB7ezsaGhoC 5xmNxox4YFAUgstjT08PfvjDH2Y1eHHCEI3o7u4mUBqGIZ+2tjatkshb6urqQu559erVqudt3749 5DybzZblnI4sKisrQ553Y2NjrrOkimbBfxsaGlSPv/LKK1olkbcYjcaQ74nu6R4tfiVFG/T6UK+u VLcAyDSaifBPf/qT6vG6urqEYzpSKCMRTUTY3t4eNVRcV1eXqncBhUJR0ESE9fX1Id+DQ4sDwKZN m7RIhkIZlqQtQn/sxmBee+21kO/Nzc1oaWlJNykKZViS9hTF3r17Q/z/rFYrrFYrqqursXbt2sDx LVu2qA7bB+NwOOB0hq7OiLXIMta1giAkFC+kpaUFx44dCzk2ZcoUTJ06Nb9cvAjQeqgVR44cAQmb 2i0uLobNZkv4WQVPIwU/J4fDgQ8//DDEFStZ22q0tkbmu7i4GDfccENam312dHTg8OHDGBi46LNs s9k0iVtqt9vR2dkZUTYYhsHUqVNxxRVXaFc+0h1eDR8GrqmpIYQQ0tjYGDFd0d3dHdNWW1tbylMc 4flYt25dzPM3bNhAzGaz6rQKAGI2m8mGDRsIkeOnXV9fr/oMwgmfoigvL49ru7e3l9TU1ETNZ/Bn 6dKl5OTJkzHtdXd3h9y3fzolXhqrV68mvb298R9GEG+//TaxWq0x7VZXVydt9+TJk2Tp0qVRbZaX l5OTJ0+S6urqkOMHDhyIa/vgwYNkwYIFcZ+12WxWylgC5SMeaYlQbW4wWDThv23YsCGuzYqKioQK dDL5CKa3tzduwQj+lJWVxS3YmRKh2osskU+s+bBwEVZWVpLy8vKE7Fqt1oQFk0hBTlYgyTwTs9lM ysrKkkojXLSJfGw2GxkYGEgo79FIS4QbNmwIyVBFRUXI7+vWrYvIcLw3R3hBLSsri3tNuAiiFe7e 3t6otZ/ZbI5ZM8Z60JkQ4cGDB2MWsHi1eLT8hosw2c+CBQti/CUUwl+kieY7nkgOHDgQ857TEXqs lkC8fEdzzkiUtEQYnpm6urqQ30+ePJn0gx4YGEj6mnnz5oWcX19fr3qeWuGorq4mBw8eJAMDA2Rg YIC0tbWp/kHCXzDBZEKE4ffkf74nT54M5LW3t5c0NjZGvPEBkLffflvVbiwRVldXkwMHDpC2tjbS 1tYWcV/+T6yWQbRn19jYGMh3d3d3hJdRIi87tRbMunXrlPzIJKbdWOVIrSVVXl5OGhsbSXd3t5In WSnP4RWP/5NOszRlEaq9ldT6fOEFP5E3aXizoLq6Ouq5av1ItSaTWjMmmlgJUfoz4ecfPHhQ9Vyt Rah2T7GamAMDAxFCjNYnjibCaKJVq5HDX7Z+1F66S5cujZpvtfuM1mUJf3axnkm0GjOaCNVabLGa 3Wr203HPTFmE4UKprKxUPU/t4cUboAn/w1sslqgPJfwBRvujh9cssQpHsveotQjjNfMTuSba/amJ MNZLjhASMQgSTSjhfwur1Zp09wNQL5LhL/N4TUC1WjyaCC0WS0IvpAAyiehHx70mBinNE/b19YVM PwDAggULVM+dNWtWxLGtW7fGtB8+zNzZ2Ym///3vkSeSSFsPPfRQxGl2uz3Co0ftvHDCz9m8ebPy yDPMwoULsX37dmzYsAGrV69OKK/pEG+ly9VXX52QnfC/xVNPPRV3ofPs2bMjgiaFh4yw2+0ROyEt XLgwpt077rgDZnMCG9oSoLGxEXV1daipqcHSpUsxffr02NcwwMSJE0MO6XS6+GlFIaV5wj179oR8 t9lsuOWWW1TPLSoqipgzrKqqwrJly2KmUVVVhaqqqsD3nTt3Yvbs2SHntB5qRXNzc+C72WxWnYsM D31utVpxxRVXxPVpNRqNsFgsIde3H2nP+P55JSUluPPOO+Oe19HRgaNHj+LQoUP47W9/m3J6Y8eO jfl7Io7Pdrs9Yk5twoQJCfkN33TTTSHP+MiRI7DZbIHvZ86cCZmLNpvNIb+rUVRUhPnz58f31mIu zm3HwuFw4Pjx4zh16hT+8pe/4L333ottNwlSEuELL7wQ8n3SpEloaGiImGgHlIJsMBgijjc1NWHm zJlR01i8eHGICDdt2oSampqQyd3wN+/KlStVbR06dCjke3t7O0aPHh017Vio3WOmsdvt+Otf/4qO jg7s3bsXLS0tcQMTJYrZbMakiemvsevp6YkI2qTWCkqEzz//POT7kSNHQr5PmTIlITvhtVWi+B04 /va3v+Ho0aP44IMPMhqQKmkRtraG1j4AsHv37qQ2XASA1atXxwyWWlRUhAULFoRsvvHmm2+GRLta s2ZNyDX33ntvUnlIhe7u7oyn4aejowPLly/PyT7qyaLlyyncEyXcdjpeNrFoaGjAj3/846ibxmSK pPuEb7zxhiYJNzc3x32bP/LIIyHf//znPwf+/+GHH4b8tmDBgrRcq/KNpqYmTJ48OSEBWq3WuM2z oYTD4dDETvhCglg8+uijmDNnTkICLCsrS6y/mSBJ1YQOhyOtvkc4r776Kp555pmov8+YMQNmsznQ FNi2bRvWrl2LSZMmYcuWLSHn3nPPPQmnW15ejpdeekk1XF0svF5vwoMU6dDe3h61KVdeXo6JEyfC arXi1ltvxYQJE2Cz2bBx48aQ5nu24fnIotTY2JiSrfCBmvBF04kSK4J2MBs3blTtO5rNZkyfPh0T JkzAddddh9tuuw1jx47FpEmTMHfu3KRbf9FISoR79+6NqL0OHDiAsWPHRsSODMb/EB9++OGQjNfW 1uLJJ5+M6ghbUFCAJUuWhDQ733vvPdx///0RewOED9oEM2HChJDvbrc7rjN5Llm3bp3qsTvvvFPp v2kYs1Ur1JqIV111lSYxXcL7gF988UXaNv3Y7faIl5fVasXLL78c3XFd4xHypEQYvjlieXl5UoX5 scceCxFhV1cXGhoaYo4ELly4MESEmzZtingwq1evjunRHn7+/v370dHREbeAOBwOPPHEEwCUTv7N N9+c9oqCePT19WHnzp0hx2pqarB8+fKY1yW6v16mGDNmDKxWa8hL+qOPPkpIhOvXr8enn36KK6+8 EmVlZbj88stDRivDR2/b29vR3h5/lPr999+Pm3b4dAigrI+N1bx3OB2avggSnqxX84aI5jkRjd7e 3ggbiUxEh0/UhnuHRPNkCcZmsyU1QU2I+kSymmeElpP1ai5U8RzI1Vz9Ep2sN5vNcSfUw13Bok3W h69kSWSViFq5UvNkCp8cj+fYr+bVojZZH+4ZlUie1byv0gkilfDATPjbGQDmzZuX6OUALs4ZBrN7 927Vt1Ew4ZPJwW398vJyXHFF/O2277vvvpDva9euRVNTU9Tz+/r6lMnmIBKZT8oER48ejfn7ihUr spST2IT/nZqbm7Fx48aY16jV8HPmzIk4tnTp0pDvq1atirlQfNWqVTHTjcaxY8diDgx1dHRg8eLF KdmOSkJSVXHTScQHVA01f8F4tVK0cIqI8VYOR60WDlwfVhMcOHAgouZEjLedljXhwMBAxLM2m82q rn7d3d1RVyxE+/tksiYkRN1JfunSpRH57+7uVnVSj7UOVM3ndfv27Qk/E7WaUK3GjOYSF2sZVXg+ kiEhEaplNJ3qV62Ax/MnDW/q+D/xmmrBqDllBxfaBQsWRF1hEM1vlBDtfUfDfTCD87hhwwayevVq 1ZUT4cJVI9MijPXCLC8vj7l+saysLGY+1F7ggOJbvGDBgqjiiyVCQtTLo9lsJtXV1aSuri7mAuJE Xh7xSEiEq1evjkg0HdSWm8TrX6q9hVKpjWMtdYn2iSVAQrQXoVptGO+zdOnSiKU+0WrPTIqQEPV+ XrxPeXl5QguGoy2vivYiCv6e7KqLaB+LxRKhiUT6ktGIqya1Zly6ixjVbMZboTwwMBDxUFP1XG9r a1NtCqk97EQGn8ILhhYRuHt7exNa6e1fq0dIZGtBbXBGraaKtzI8fIVGIm/97u7uqK2X8E9NTU1S q9Pb2trivqTq6uoihBKr9Xbw4MG4rQtA6Tp1d3erPsdEowOEE3dDmL6+Pnz88cchx7QYpm9paYmY LJ8xY0bMqYbW1taQIEXxzo9He3s79u3bh5aWlhDXKP90RKL2/Y7UfiwWS9T97IIHoYqLi+NO8fj3 rzh8+HDgmMlkQmlpKa6//vqQofTwfACI8M/1B3OKdU44id5ftGv37duHv/3tbyHPeMyYMbj11lsx ffr01MoSAVo+acHu3bvxxRdfQK/XB+Z//XtOtLe3h3jAxA0sRYCmd5rwwQcf4KuvvgocNplMKC8v x4033hgy5RJehlOdF6W7MlEoOUazMPgUCiU1qAgplBxDRUih5BgqQgolx1ARUig5hoqQQskxVIQU So6hIqRQcgwVIYWSY6gIKZQcQ0VIoeQYKkIKJcdQEVIoOYaKkELJMVSEFEqOoSKkUHIMFSGFkmP+ P2Zp8Pp3pu07AAAAAElFTkSuQmCC "
       id="image1097"
       x="66.145836"
       y="5.0270829"
       style="stroke-width:4.29058" />
    <rect
       style="fill:#ffffff;fill-opacity:1;stroke:#000000;stroke-width:0.264583;stroke-opacity:1"
       id="rect861-9"
       width="47.625"
       height="26.458336"
       x="30.956299"
       y="30.427082" />
    <path
       style="fill:none;stroke:#000000;stroke-width:0.264583px;stroke-linecap:butt;stroke-linejoin:miter;stroke-opacity:1"
       d="M 35.71875,35.454167 Z"
       id="path875-5" />
    <rect
       style="fill:none;fill-opacity:1;stroke:#ffffff;stroke-width:0.529167;stroke-miterlimit:4;stroke-dasharray:none;stroke-opacity:1"
       id="rect973-7-6"
       width="15.874999"
       height="6.6145844"
       x="8.7312498"
       y="27.78125" />
    <rect
       style="fill:none;fill-opacity:1;stroke:#ffffff;stroke-width:0.529167;stroke-miterlimit:4;stroke-dasharray:none;stroke-opacity:1"
       id="rect973-4-6"
       width="15.875"
       height="6.6145844"
       x="8.7312498"
       y="35.71875" />
    <rect
       style="fill:none;fill-opacity:1;stroke:#ffffff;stroke-width:0.529167;stroke-miterlimit:4;stroke-dasharray:none;stroke-opacity:1"
       id="rect973-0-8"
       width="15.874999"
       height="6.6145844"
       x="8.7312498"
       y="43.65625" />
    <text
       xml:space="preserve"
       style="font-size:3.88056px;line-height:1.25;font-family:sans-serif;text-align:end;text-anchor:end;fill:#ff6600;stroke-width:0.264583"
       x="21.069424"
       y="32.495388"
       id="text1037-9-6"><tspan
         sodipodi:role="line"
         id="tspan1035-3-9"
         x="21.069424"
         y="32.495388"
         style="font-size:3.88056px;fill:#ff6600;stroke-width:0.264583">NEW</tspan></text>
    <text
       xml:space="preserve"
       style="font-size:3.88056px;line-height:1.25;font-family:sans-serif;text-align:end;text-anchor:end;fill:#ff6600;stroke-width:0.264583"
       x="21.846729"
       y="40.481644"
       id="text1065-3"><tspan
         sodipodi:role="line"
         id="tspan1063-1"
         x="21.846729"
         y="40.481644"
         style="font-size:3.88056px;fill:#ff6600;stroke-width:0.264583">SAVE</tspan></text>
    <text
       xml:space="preserve"
       style="font-size:3.88056px;line-height:1.25;font-family:sans-serif;text-align:end;text-anchor:end;fill:#ff6600;stroke-width:0.264583"
       x="21.887653"
       y="48.336739"
       id="text1069-2"><tspan
         sodipodi:role="line"
         id="tspan1067-1"
         x="21.887653"
         y="48.336739"
         style="font-size:3.88056px;fill:#ff6600;stroke-width:0.264583">BANK</tspan></text>
    <path
       style="fill:none;stroke:#ff6900;stroke-width:0.264583px;stroke-linecap:butt;stroke-linejoin:miter;stroke-opacity:1"
       d="M 82.020833,21.695833 H 64.822917 v 3.439584 l -61.9125003,0"
       id="path1610"
       sodipodi:nodetypes="cccc" />
    <text
       xml:space="preserve"
       style="font-size:3.88056px;line-height:1.25;font-family:sans-serif;text-align:end;text-anchor:end;stroke-width:0.264583"
       x="50.692051"
       y="35.834984"
       id="text1616"><tspan
         sodipodi:role="line"
         id="tspan1614"
         x="50.692051"
         y="35.834984"
         style="font-size:3.88056px;stroke-width:0.264583">Muestra:</tspan></text>
    <text
       xml:space="preserve"
       style="font-size:4.93889px;line-height:1.25;font-family:sans-serif;text-align:end;text-anchor:end;stroke-width:0.264583"
       x="65.280312"
       y="44.295853"
       id="text1620"><tspan
         sodipodi:role="line"
         id="tspan1618"
         x="65.280312"
         y="44.295853"
         style="font-size:4.93889px;stroke-width:0.264583">_ , _ V</tspan></text>
  </g>
</svg>
