EESchema Schematic File Version 4
LIBS:PLACA GENERADOR DE FUNCIONES-cache
EELAYER 30 0
EELAYER END
$Descr A4 11693 8268
encoding utf-8
Sheet 1 1
Title "Generador de funciones"
Date ""
Rev "Ian Lesnianski"
Comp "TD3-UTN Fra- 2021 - Ian Lesnianski"
Comment1 "Doble implementacion de operacionales para compra futura del LM318"
Comment2 ""
Comment3 ""
Comment4 ""
$EndDescr
$Comp
L Amplifier_Operational:LM318N U1
U 1 1 5FD128FA
P 2900 3200
F 0 "U1" H 3244 3246 50  0000 L CNN
F 1 "LM318N" H 3244 3155 50  0000 L CNN
F 2 "Housings_DIP:DIP-8_W7.62mm_Socket_LongPads" H 2900 3200 50  0001 C CNN
F 3 "http://www.ti.com/lit/ds/symlink/lm318-n.pdf" H 2900 3200 50  0001 C CNN
	1    2900 3200
	1    0    0    1   
$EndComp
$Comp
L Device:R R4
U 1 1 5FD13F1B
P 4450 2900
F 0 "R4" H 4520 2946 50  0000 L CNN
F 1 "10K" H 4520 2855 50  0000 L CNN
F 2 "Resistors_THT:R_Axial_DIN0207_L6.3mm_D2.5mm_P10.16mm_Horizontal" V 4380 2900 50  0001 C CNN
F 3 "~" H 4450 2900 50  0001 C CNN
	1    4450 2900
	1    0    0    -1  
$EndComp
$Comp
L Device:R R3
U 1 1 5FD1488D
P 3900 3200
F 0 "R3" H 3970 3246 50  0000 L CNN
F 1 "10K" H 3970 3155 50  0000 L CNN
F 2 "Resistors_THT:R_Axial_DIN0207_L6.3mm_D2.5mm_P10.16mm_Horizontal" V 3830 3200 50  0001 C CNN
F 3 "~" H 3900 3200 50  0001 C CNN
	1    3900 3200
	0    -1   -1   0   
$EndComp
$Comp
L Device:R R6
U 1 1 5FD16089
P 5400 4250
F 0 "R6" V 5300 4200 50  0000 L CNN
F 1 "10K" V 5400 4200 50  0000 L CNN
F 2 "Resistors_THT:R_Axial_DIN0207_L6.3mm_D2.5mm_P10.16mm_Horizontal" V 5330 4250 50  0001 C CNN
F 3 "~" H 5400 4250 50  0001 C CNN
	1    5400 4250
	0    -1   -1   0   
$EndComp
$Comp
L Device:R R1
U 1 1 5FD165D4
P 2150 3100
F 0 "R1" V 2250 3050 50  0000 L CNN
F 1 "1K3" V 2150 3050 50  0000 L CNN
F 2 "Resistors_THT:R_Axial_DIN0207_L6.3mm_D2.5mm_P10.16mm_Horizontal" V 2080 3100 50  0001 C CNN
F 3 "~" H 2150 3100 50  0001 C CNN
	1    2150 3100
	0    -1   -1   0   
$EndComp
$Comp
L Device:R R2
U 1 1 5FD16734
P 2150 3300
F 0 "R2" V 2250 3250 50  0000 L CNN
F 1 "1K3" V 2150 3250 50  0000 L CNN
F 2 "Resistors_THT:R_Axial_DIN0207_L6.3mm_D2.5mm_P10.16mm_Horizontal" V 2080 3300 50  0001 C CNN
F 3 "~" H 2150 3300 50  0001 C CNN
	1    2150 3300
	0    -1   -1   0   
$EndComp
$Comp
L Device:R_POT RV2
U 1 1 5FD16B73
P 4100 2600
F 0 "RV2" H 4031 2646 50  0000 R CNN
F 1 "1K" H 4031 2555 50  0000 R CNN
F 2 "Potentiometers:Potentiometer_Alps_RK163_Single_Vertical" H 4100 2600 50  0001 C CNN
F 3 "~" H 4100 2600 50  0001 C CNN
	1    4100 2600
	1    0    0    -1  
$EndComp
$Comp
L Device:R_POT RV1
U 1 1 5FD17580
P 2850 2150
F 0 "RV1" V 2643 2150 50  0000 C CNN
F 1 "50K" V 2734 2150 50  0000 C CNN
F 2 "Potentiometers:Potentiometer_Alps_RK163_Single_Vertical" H 2850 2150 50  0001 C CNN
F 3 "~" H 2850 2150 50  0001 C CNN
	1    2850 2150
	0    -1   1    0   
$EndComp
$Comp
L Device:C C6
U 1 1 5FD1810B
P 5350 3800
F 0 "C6" H 5465 3846 50  0000 L CNN
F 1 "100n" H 5465 3755 50  0000 L CNN
F 2 "Capacitors_THT:C_Disc_D5.0mm_W2.5mm_P5.00mm" H 5388 3650 50  0001 C CNN
F 3 "~" H 5350 3800 50  0001 C CNN
	1    5350 3800
	1    0    0    -1  
$EndComp
Wire Wire Line
	4050 3200 4450 3200
Wire Wire Line
	2600 3300 2550 3300
Wire Wire Line
	2850 2300 2850 2400
Wire Wire Line
	2700 2150 2450 2150
Wire Wire Line
	2450 2150 2450 2400
Wire Wire Line
	4250 2600 4450 2600
Wire Wire Line
	4450 2600 4450 2750
Wire Wire Line
	2450 2400 2850 2400
Connection ~ 2450 2400
Wire Wire Line
	2300 3100 2450 3100
Wire Wire Line
	2450 2400 2450 3100
Connection ~ 2450 3100
Wire Wire Line
	2450 3100 2600 3100
$Comp
L Device:C C5
U 1 1 5FD17FCA
P 5200 2800
F 0 "C5" H 5315 2846 50  0000 L CNN
F 1 "100n" H 5315 2755 50  0000 L CNN
F 2 "Capacitors_THT:C_Disc_D5.0mm_W2.5mm_P5.00mm" H 5238 2650 50  0001 C CNN
F 3 "~" H 5200 2800 50  0001 C CNN
	1    5200 2800
	1    0    0    -1  
$EndComp
$Comp
L Amplifier_Operational:LM318N U4
U 1 1 5FD12FC1
P 5000 3300
F 0 "U4" H 5344 3346 50  0000 L CNN
F 1 "LM318N" H 5344 3255 50  0000 L CNN
F 2 "Housings_DIP:DIP-8_W7.62mm_Socket_LongPads" H 5000 3300 50  0001 C CNN
F 3 "http://www.ti.com/lit/ds/symlink/lm318-n.pdf" H 5000 3300 50  0001 C CNN
	1    5000 3300
	1    0    0    -1  
$EndComp
Wire Wire Line
	5300 3300 5850 3300
Wire Wire Line
	2000 3300 1850 3300
Wire Wire Line
	1850 3300 1850 3600
Wire Wire Line
	1850 3600 1750 3600
$Comp
L Device:R R5
U 1 1 5FD30649
P 4950 4400
F 0 "R5" H 5020 4446 50  0000 L CNN
F 1 "10K" H 5020 4355 50  0000 L CNN
F 2 "Resistors_THT:R_Axial_DIN0207_L6.3mm_D2.5mm_P10.16mm_Horizontal" V 4880 4400 50  0001 C CNN
F 3 "~" H 4950 4400 50  0001 C CNN
	1    4950 4400
	1    0    0    -1  
$EndComp
$Comp
L power:+12V #PWR0105
U 1 1 5FD340DE
P 5200 2650
F 0 "#PWR0105" H 5200 2500 50  0001 C CNN
F 1 "+12V" H 5215 2823 50  0000 C CNN
F 2 "" H 5200 2650 50  0001 C CNN
F 3 "" H 5200 2650 50  0001 C CNN
	1    5200 2650
	1    0    0    -1  
$EndComp
$Comp
L power:+12V #PWR0106
U 1 1 5FD34E56
P 4100 2450
F 0 "#PWR0106" H 4100 2300 50  0001 C CNN
F 1 "+12V" H 4115 2623 50  0000 C CNN
F 2 "" H 4100 2450 50  0001 C CNN
F 3 "" H 4100 2450 50  0001 C CNN
	1    4100 2450
	1    0    0    -1  
$EndComp
$Comp
L power:-12V #PWR0107
U 1 1 5FD356D0
P 5350 3600
F 0 "#PWR0107" H 5350 3700 50  0001 C CNN
F 1 "-12V" H 5365 3773 50  0000 C CNN
F 2 "" H 5350 3600 50  0001 C CNN
F 3 "" H 5350 3600 50  0001 C CNN
	1    5350 3600
	1    0    0    -1  
$EndComp
$Comp
L Device:C C2
U 1 1 5FD39877
P 3300 2700
F 0 "C2" H 3415 2746 50  0000 L CNN
F 1 "100n" H 3415 2655 50  0000 L CNN
F 2 "Capacitors_THT:C_Disc_D5.0mm_W2.5mm_P5.00mm" H 3338 2550 50  0001 C CNN
F 3 "~" H 3300 2700 50  0001 C CNN
	1    3300 2700
	1    0    0    -1  
$EndComp
$Comp
L power:+12V #PWR0109
U 1 1 5FD39883
P 3000 3750
F 0 "#PWR0109" H 3000 3600 50  0001 C CNN
F 1 "+12V" H 3000 3900 50  0000 C CNN
F 2 "" H 3000 3750 50  0001 C CNN
F 3 "" H 3000 3750 50  0001 C CNN
	1    3000 3750
	1    0    0    -1  
$EndComp
$Comp
L Device:C C1
U 1 1 5FD3B235
P 3000 3950
F 0 "C1" H 3115 3996 50  0000 L CNN
F 1 "100n" H 3115 3905 50  0000 L CNN
F 2 "Capacitors_THT:C_Disc_D5.0mm_W2.5mm_P5.00mm" H 3038 3800 50  0001 C CNN
F 3 "~" H 3000 3950 50  0001 C CNN
	1    3000 3950
	1    0    0    -1  
$EndComp
$Comp
L power:-12V #PWR0111
U 1 1 5FD3B241
P 3300 2550
F 0 "#PWR0111" H 3300 2650 50  0001 C CNN
F 1 "-12V" H 3315 2723 50  0000 C CNN
F 2 "" H 3300 2550 50  0001 C CNN
F 3 "" H 3300 2550 50  0001 C CNN
	1    3300 2550
	1    0    0    -1  
$EndComp
Wire Wire Line
	2800 3500 2800 3750
Wire Wire Line
	2800 3750 3000 3750
Wire Wire Line
	3000 3750 3000 3800
Connection ~ 3000 3750
Wire Wire Line
	2800 2550 2800 2900
Wire Wire Line
	4900 2650 4900 3000
Wire Wire Line
	4900 2650 5200 2650
Connection ~ 5200 2650
Wire Wire Line
	4900 3600 4900 3650
Wire Wire Line
	4900 3650 5350 3650
Wire Wire Line
	5350 3600 5350 3650
Connection ~ 5350 3650
$Comp
L power:-12V #PWR0112
U 1 1 5FD4398F
P 4100 2750
F 0 "#PWR0112" H 4100 2850 50  0001 C CNN
F 1 "-12V" H 4115 2923 50  0000 C CNN
F 2 "" H 4100 2750 50  0001 C CNN
F 3 "" H 4100 2750 50  0001 C CNN
	1    4100 2750
	-1   0    0    1   
$EndComp
$Comp
L Connector:Conn_Coaxial J5
U 1 1 5FD48725
P 6250 3300
F 0 "J5" H 6350 3275 50  0000 L CNN
F 1 "OUT" H 6350 3184 50  0000 L CNN
F 2 "Connectors_Terminal_Blocks:TerminalBlock_bornier-2_P5.08mm" H 6250 3300 50  0001 C CNN
F 3 " ~" H 6250 3300 50  0001 C CNN
	1    6250 3300
	1    0    0    -1  
$EndComp
Wire Wire Line
	5850 3300 6050 3300
Connection ~ 5850 3300
$Comp
L Connector:Conn_01x09_Female J1
U 1 1 60286164
P 3000 5900
F 0 "J1" H 3028 5926 50  0000 L CNN
F 1 "TFT" H 3028 5835 50  0000 L CNN
F 2 "Displays:CR2013-MI2120" H 3000 5900 50  0001 C CNN
F 3 "~" H 3000 5900 50  0001 C CNN
	1    3000 5900
	1    0    0    -1  
$EndComp
$Comp
L Connector:Conn_01x07_Female J3
U 1 1 602875A1
P 4150 6050
F 0 "J3" H 4178 6076 50  0000 L CNN
F 1 "ADS9833" H 4178 5985 50  0000 L CNN
F 2 "Pin_Headers:Pin_Header_Straight_1x07_Pitch2.54mm" H 4150 6050 50  0001 C CNN
F 3 "~" H 4150 6050 50  0001 C CNN
	1    4150 6050
	1    0    0    -1  
$EndComp
$Comp
L Connector:Conn_01x08_Male J2
U 1 1 60291A17
P 3050 7000
F 0 "J2" H 3022 6974 50  0000 R CNN
F 1 "Teclado" H 3022 6883 50  0000 R CNN
F 2 "Pin_Headers:Pin_Header_Angled_1x08_Pitch2.54mm" H 3050 7000 50  0001 C CNN
F 3 "~" H 3050 7000 50  0001 C CNN
	1    3050 7000
	-1   0    0    -1  
$EndComp
$Comp
L Connector:Conn_01x05_Female J4
U 1 1 60294400
P 4150 7000
F 0 "J4" H 4178 7026 50  0000 L CNN
F 1 "Encoder" H 4178 6935 50  0000 L CNN
F 2 "Pin_Headers:Pin_Header_Straight_1x05_Pitch2.54mm" H 4150 7000 50  0001 C CNN
F 3 "~" H 4150 7000 50  0001 C CNN
	1    4150 7000
	1    0    0    -1  
$EndComp
$Comp
L Connector_Generic:Conn_02x20_Odd_Even J7
U 1 1 60298252
P 8600 5150
F 0 "J7" H 8650 6267 50  0000 C CNN
F 1 "P2" H 8650 6176 50  0000 C CNN
F 2 "Pin_Headers:Pin_Header_Straight_2x20_Pitch2.54mm_SMD" H 8600 5150 50  0001 C CNN
F 3 "~" H 8600 5150 50  0001 C CNN
	1    8600 5150
	-1   0    0    -1  
$EndComp
$Comp
L Connector_Generic:Conn_02x20_Odd_Even J8
U 1 1 6029A546
P 10050 5150
F 0 "J8" H 10100 6267 50  0000 C CNN
F 1 "P1" H 10100 6176 50  0000 C CNN
F 2 "Pin_Headers:Pin_Header_Straight_2x20_Pitch2.54mm_SMD" H 10050 5150 50  0001 C CNN
F 3 "~" H 10050 5150 50  0001 C CNN
	1    10050 5150
	-1   0    0    -1  
$EndComp
Text GLabel 8300 5950 0    50   Input ~ 0
GPIO6
Text GLabel 8300 5850 0    50   Input ~ 0
GPIO4
Text GLabel 8800 5950 2    50   Input ~ 0
GPIO5
Text GLabel 8300 6050 0    50   Input ~ 0
GND
Text GLabel 8300 6150 0    50   Input ~ 0
GND
Text GLabel 8300 4250 0    50   Input ~ 0
+3.3V
Text GLabel 8800 4250 2    50   Input ~ 0
5V
Text GLabel 10250 4250 2    50   Input ~ 0
5V
Text GLabel 3950 6800 0    50   Input ~ 0
GPIO5
Text GLabel 3950 6900 0    50   Input ~ 0
GPIO4
Text GLabel 3950 7000 0    50   Input ~ 0
GPIO6
Text GLabel 3950 7200 0    50   Input ~ 0
GND
Text GLabel 3950 7100 0    50   Input ~ 0
+3.3V
Text GLabel 9750 4950 0    50   Input ~ 0
DAC
Text GLabel 10250 4550 2    50   Input ~ 0
GNDA
Text GLabel 10250 4650 2    50   Input ~ 0
GNDA
Text GLabel 10250 4750 2    50   Input ~ 0
GNDA
Text GLabel 10250 5050 2    50   Input ~ 0
GNDA
Text GLabel 10250 4850 2    50   Input ~ 0
GNDA
Text GLabel 10250 4950 2    50   Input ~ 0
GNDA
Text GLabel 9750 4550 0    50   Input ~ 0
GNDA
Text GLabel 3950 5750 0    50   Input ~ 0
5V
Text GLabel 3950 5850 0    50   Input ~ 0
GND
Text GLabel 3950 5950 0    50   Input ~ 0
SPI_MOSI
Text GLabel 8300 5250 0    50   Input ~ 0
SPI_MOSI
Text GLabel 3950 6050 0    50   Input ~ 0
SPI_CLK
Text GLabel 8800 5150 2    50   Input ~ 0
SPI_CLK
Text GLabel 3950 6150 0    50   Input ~ 0
T_COL0
Text GLabel 9750 6150 0    50   Input ~ 0
T_COL0
Text GLabel 3950 6350 0    50   Input ~ 0
AD9833
Text GLabel 9750 6050 0    50   Input ~ 0
T_FIL2
Text GLabel 9750 5950 0    50   Input ~ 0
T_FIL3
Text GLabel 9750 5850 0    50   Input ~ 0
T_FIL0
Text GLabel 9750 5750 0    50   Input ~ 0
T_COL1
Text GLabel 9750 5650 0    50   Input ~ 0
CAN_TD
Text GLabel 9750 5550 0    50   Input ~ 0
CAN_RD
Text GLabel 9750 5450 0    50   Input ~ 0
232_TX
Text GLabel 9750 5350 0    50   Input ~ 0
232_RX
Text GLabel 2850 7400 0    50   Input ~ 0
T_FIL2
Text GLabel 2850 7300 0    50   Input ~ 0
T_FIL3
Text GLabel 2850 7200 0    50   Input ~ 0
T_FIL0
Text GLabel 2850 7100 0    50   Input ~ 0
T_COL1
Text GLabel 2850 7000 0    50   Input ~ 0
CAN_TD
Text GLabel 2850 6900 0    50   Input ~ 0
CAN_RD
Text GLabel 2850 6800 0    50   Input ~ 0
232_TX
Text GLabel 2850 6700 0    50   Input ~ 0
232_RX
Text GLabel 2800 5500 0    50   Input ~ 0
5V
Text GLabel 2800 5600 0    50   Input ~ 0
GND
Text GLabel 2800 6200 0    50   Input ~ 0
5V
NoConn ~ 2800 6300
Text GLabel 2800 6100 0    50   Input ~ 0
SPI_CLK
Text GLabel 2800 6000 0    50   Input ~ 0
SPI_MOSI
Text GLabel 2800 5900 0    50   Input ~ 0
GPIO0
Text GLabel 8300 5650 0    50   Input ~ 0
GPIO0
Text GLabel 2800 5800 0    50   Input ~ 0
GPIO2
Text GLabel 8300 5750 0    50   Input ~ 0
GPIO2
Text GLabel 8800 5750 2    50   Input ~ 0
GPIO1
Text GLabel 2800 5700 0    50   Input ~ 0
GPIO1
Text GLabel 8300 5550 0    50   Input ~ 0
GND
Text GLabel 8300 5450 0    50   Input ~ 0
GND
Text GLabel 8300 5150 0    50   Input ~ 0
GND
Text GLabel 8300 5050 0    50   Input ~ 0
GND
Text GLabel 8300 4850 0    50   Input ~ 0
GND
Text GLabel 8300 4750 0    50   Input ~ 0
GND
Text GLabel 8300 4550 0    50   Input ~ 0
GND
Text GLabel 8300 4450 0    50   Input ~ 0
GND
Text GLabel 10250 4350 2    50   Input ~ 0
GND
Text GLabel 10250 5750 2    50   Input ~ 0
GND
Text GLabel 10250 5650 2    50   Input ~ 0
GND
Text GLabel 10250 5550 2    50   Input ~ 0
GND
Text GLabel 10250 5450 2    50   Input ~ 0
GND
Text GLabel 10250 5350 2    50   Input ~ 0
GND
Text GLabel 10250 5250 2    50   Input ~ 0
GND
Text GLabel 10250 5150 2    50   Input ~ 0
GND
Wire Wire Line
	4700 3200 4450 3200
Text GLabel 8300 4350 0    50   Input ~ 0
GND
NoConn ~ 8300 4650
NoConn ~ 8300 4950
NoConn ~ 8300 5350
NoConn ~ 8800 5250
NoConn ~ 8800 5350
NoConn ~ 8800 5450
NoConn ~ 8800 5550
NoConn ~ 8800 5650
NoConn ~ 8800 5850
NoConn ~ 8800 6050
NoConn ~ 8800 6150
NoConn ~ 8800 5050
NoConn ~ 8800 4950
NoConn ~ 8800 4850
NoConn ~ 8800 4750
NoConn ~ 8800 4650
NoConn ~ 8800 4550
NoConn ~ 8800 4450
NoConn ~ 8800 4350
NoConn ~ 10250 4450
NoConn ~ 10250 5850
NoConn ~ 10250 5950
Text GLabel 10250 6050 2    50   Input ~ 0
GND
Text GLabel 10250 6150 2    50   Input ~ 0
GND
NoConn ~ 9750 4350
NoConn ~ 9750 4450
NoConn ~ 9750 4650
NoConn ~ 9750 4750
NoConn ~ 9750 4850
NoConn ~ 9750 5050
NoConn ~ 9750 5150
NoConn ~ 9750 5250
$Comp
L Connector_Generic:Conn_01x03 J6
U 1 1 602BCF6B
P 6250 2500
F 0 "J6" H 6330 2542 50  0000 L CNN
F 1 "PWR" H 6330 2451 50  0000 L CNN
F 2 "Connectors_Terminal_Blocks:TerminalBlock_bornier-3_P5.08mm" H 6250 2500 50  0001 C CNN
F 3 "~" H 6250 2500 50  0001 C CNN
	1    6250 2500
	1    0    0    -1  
$EndComp
$Comp
L power:+12V #PWR0120
U 1 1 602BDE79
P 6000 2350
F 0 "#PWR0120" H 6000 2200 50  0001 C CNN
F 1 "+12V" H 6015 2523 50  0000 C CNN
F 2 "" H 6000 2350 50  0001 C CNN
F 3 "" H 6000 2350 50  0001 C CNN
	1    6000 2350
	1    0    0    -1  
$EndComp
$Comp
L power:-12V #PWR0121
U 1 1 602BE4C2
P 6000 2650
F 0 "#PWR0121" H 6000 2750 50  0001 C CNN
F 1 "-12V" H 6015 2823 50  0000 C CNN
F 2 "" H 6000 2650 50  0001 C CNN
F 3 "" H 6000 2650 50  0001 C CNN
	1    6000 2650
	-1   0    0    1   
$EndComp
Wire Wire Line
	6000 2350 6000 2400
Wire Wire Line
	6000 2400 6050 2400
Wire Wire Line
	6050 2600 6000 2600
Wire Wire Line
	6000 2600 6000 2650
Wire Wire Line
	5750 2500 6050 2500
$Comp
L power:PWR_FLAG #FLG01
U 1 1 60298F8D
P 3950 900
F 0 "#FLG01" H 3950 975 50  0001 C CNN
F 1 "PWR_FLAG" H 3950 1073 50  0000 C CNN
F 2 "" H 3950 900 50  0001 C CNN
F 3 "~" H 3950 900 50  0001 C CNN
	1    3950 900 
	1    0    0    -1  
$EndComp
$Comp
L power:PWR_FLAG #FLG02
U 1 1 6029971B
P 4350 900
F 0 "#FLG02" H 4350 975 50  0001 C CNN
F 1 "PWR_FLAG" H 4350 1073 50  0000 C CNN
F 2 "" H 4350 900 50  0001 C CNN
F 3 "~" H 4350 900 50  0001 C CNN
	1    4350 900 
	1    0    0    -1  
$EndComp
$Comp
L power:PWR_FLAG #FLG03
U 1 1 6029990A
P 4750 900
F 0 "#FLG03" H 4750 975 50  0001 C CNN
F 1 "PWR_FLAG" H 4750 1073 50  0000 C CNN
F 2 "" H 4750 900 50  0001 C CNN
F 3 "~" H 4750 900 50  0001 C CNN
	1    4750 900 
	1    0    0    -1  
$EndComp
$Comp
L power:+12V #PWR01
U 1 1 60299A47
P 3950 1250
F 0 "#PWR01" H 3950 1100 50  0001 C CNN
F 1 "+12V" H 3965 1423 50  0000 C CNN
F 2 "" H 3950 1250 50  0001 C CNN
F 3 "" H 3950 1250 50  0001 C CNN
	1    3950 1250
	-1   0    0    1   
$EndComp
$Comp
L power:GNDA #PWR02
U 1 1 6029A11C
P 4350 1250
F 0 "#PWR02" H 4350 1000 50  0001 C CNN
F 1 "GNDA" H 4355 1077 50  0000 C CNN
F 2 "" H 4350 1250 50  0001 C CNN
F 3 "" H 4350 1250 50  0001 C CNN
	1    4350 1250
	1    0    0    -1  
$EndComp
$Comp
L power:-12V #PWR03
U 1 1 6029A4E3
P 4750 1250
F 0 "#PWR03" H 4750 1350 50  0001 C CNN
F 1 "-12V" H 4765 1423 50  0000 C CNN
F 2 "" H 4750 1250 50  0001 C CNN
F 3 "" H 4750 1250 50  0001 C CNN
	1    4750 1250
	-1   0    0    1   
$EndComp
Wire Wire Line
	3950 900  3950 1250
Wire Wire Line
	4350 900  4350 1250
Wire Wire Line
	4750 900  4750 1250
NoConn ~ 5100 3600
NoConn ~ 5000 3600
NoConn ~ 5000 3000
NoConn ~ 2900 2900
NoConn ~ 2900 3500
NoConn ~ 3000 3500
Wire Wire Line
	5100 4850 4450 4850
Connection ~ 4450 3200
Wire Wire Line
	4700 5050 5100 5050
Wire Wire Line
	5700 4950 5850 4950
Wire Wire Line
	2750 4700 2450 4700
Wire Wire Line
	2450 3100 2450 4700
Wire Wire Line
	2550 4900 2750 4900
Wire Wire Line
	2550 3300 2550 4900
Connection ~ 2550 3300
Wire Wire Line
	2550 3300 2300 3300
Wire Wire Line
	4450 3050 4450 3200
Wire Wire Line
	4450 3200 4450 4850
$Comp
L power:-12V #PWR05
U 1 1 602A5825
P 6250 4850
F 0 "#PWR05" H 6250 4950 50  0001 C CNN
F 1 "-12V" H 6265 5023 50  0000 C CNN
F 2 "" H 6250 4850 50  0001 C CNN
F 3 "" H 6250 4850 50  0001 C CNN
	1    6250 4850
	-1   0    0    1   
$EndComp
$Comp
L power:+12V #PWR04
U 1 1 602A5E85
P 6250 4250
F 0 "#PWR04" H 6250 4100 50  0001 C CNN
F 1 "+12V" H 6265 4423 50  0000 C CNN
F 2 "" H 6250 4250 50  0001 C CNN
F 3 "" H 6250 4250 50  0001 C CNN
	1    6250 4250
	1    0    0    -1  
$EndComp
$Comp
L Connector:Conn_Coaxial J10
U 1 1 6029643D
P 10550 3050
F 0 "J10" H 10650 3025 50  0000 L CNN
F 1 "OUT DAC" H 10650 2934 50  0000 L CNN
F 2 "Pin_Headers:Pin_Header_Straight_1x02_Pitch2.54mm" H 10550 3050 50  0001 C CNN
F 3 " ~" H 10550 3050 50  0001 C CNN
	1    10550 3050
	1    0    0    -1  
$EndComp
$Comp
L Connector:Conn_Coaxial J9
U 1 1 60297123
P 9400 3050
F 0 "J9" H 9500 3025 50  0000 L CNN
F 1 "OUT AD9833" H 9500 2934 50  0000 L CNN
F 2 "Pin_Headers:Pin_Header_Straight_1x02_Pitch2.54mm" H 9400 3050 50  0001 C CNN
F 3 " ~" H 9400 3050 50  0001 C CNN
	1    9400 3050
	1    0    0    -1  
$EndComp
Text GLabel 9200 3050 0    50   Input ~ 0
AD9833
Text GLabel 10350 3050 0    50   Input ~ 0
DAC
Text GLabel 10550 3250 3    50   Input ~ 0
GNDA
$Comp
L Connector:Conn_Coaxial J11
U 1 1 602A7DB6
P 1550 3600
F 0 "J11" H 1650 3575 50  0000 L CNN
F 1 "IN" H 1650 3484 50  0000 L CNN
F 2 "Connectors_Terminal_Blocks:TerminalBlock_bornier-2_P5.08mm" H 1550 3600 50  0001 C CNN
F 3 " ~" H 1550 3600 50  0001 C CNN
	1    1550 3600
	-1   0    0    -1  
$EndComp
NoConn ~ 9750 4250
$Comp
L power:GNDPWR #PWR015
U 1 1 6029C542
P 6250 3500
F 0 "#PWR015" H 6250 3300 50  0001 C CNN
F 1 "GNDPWR" H 6254 3346 50  0000 C CNN
F 2 "" H 6250 3450 50  0001 C CNN
F 3 "" H 6250 3450 50  0001 C CNN
	1    6250 3500
	1    0    0    -1  
$EndComp
$Comp
L power:GNDPWR #PWR014
U 1 1 6029D68D
P 5350 3950
F 0 "#PWR014" H 5350 3750 50  0001 C CNN
F 1 "GNDPWR" H 5354 3796 50  0000 C CNN
F 2 "" H 5350 3900 50  0001 C CNN
F 3 "" H 5350 3900 50  0001 C CNN
	1    5350 3950
	1    0    0    -1  
$EndComp
$Comp
L power:GNDPWR #PWR016
U 1 1 6029DB98
P 5750 2500
F 0 "#PWR016" H 5750 2300 50  0001 C CNN
F 1 "GNDPWR" H 5754 2346 50  0000 C CNN
F 2 "" H 5750 2450 50  0001 C CNN
F 3 "" H 5750 2450 50  0001 C CNN
	1    5750 2500
	1    0    0    -1  
$EndComp
$Comp
L power:GNDPWR #PWR011
U 1 1 6029E123
P 4950 4600
F 0 "#PWR011" H 4950 4400 50  0001 C CNN
F 1 "GNDPWR" H 4954 4446 50  0000 C CNN
F 2 "" H 4950 4550 50  0001 C CNN
F 3 "" H 4950 4550 50  0001 C CNN
	1    4950 4600
	1    0    0    -1  
$EndComp
$Comp
L power:GNDPWR #PWR012
U 1 1 6029F5BD
P 5200 2950
F 0 "#PWR012" H 5200 2750 50  0001 C CNN
F 1 "GNDPWR" H 5204 2796 50  0000 C CNN
F 2 "" H 5200 2900 50  0001 C CNN
F 3 "" H 5200 2900 50  0001 C CNN
	1    5200 2950
	1    0    0    -1  
$EndComp
$Comp
L power:GNDPWR #PWR09
U 1 1 6029FAFF
P 3000 4100
F 0 "#PWR09" H 3000 3900 50  0001 C CNN
F 1 "GNDPWR" H 3004 3946 50  0000 C CNN
F 2 "" H 3000 4050 50  0001 C CNN
F 3 "" H 3000 4050 50  0001 C CNN
	1    3000 4100
	1    0    0    -1  
$EndComp
$Comp
L power:GNDPWR #PWR07
U 1 1 602A0351
P 1550 3800
F 0 "#PWR07" H 1550 3600 50  0001 C CNN
F 1 "GNDPWR" H 1554 3646 50  0000 C CNN
F 2 "" H 1550 3750 50  0001 C CNN
F 3 "" H 1550 3750 50  0001 C CNN
	1    1550 3800
	1    0    0    -1  
$EndComp
$Comp
L power:GNDPWR #PWR08
U 1 1 602A096E
P 1600 3100
F 0 "#PWR08" H 1600 2900 50  0001 C CNN
F 1 "GNDPWR" H 1604 2946 50  0000 C CNN
F 2 "" H 1600 3050 50  0001 C CNN
F 3 "" H 1600 3050 50  0001 C CNN
	1    1600 3100
	1    0    0    -1  
$EndComp
Wire Wire Line
	1600 3100 2000 3100
$Comp
L power:GNDPWR #PWR010
U 1 1 602A2337
P 3300 2850
F 0 "#PWR010" H 3300 2650 50  0001 C CNN
F 1 "GNDPWR" H 3304 2696 50  0000 C CNN
F 2 "" H 3300 2800 50  0001 C CNN
F 3 "" H 3300 2800 50  0001 C CNN
	1    3300 2850
	1    0    0    -1  
$EndComp
$Comp
L power:GNDPWR #PWR013
U 1 1 602A27D7
P 5250 1300
F 0 "#PWR013" H 5250 1100 50  0001 C CNN
F 1 "GNDPWR" H 5254 1146 50  0000 C CNN
F 2 "" H 5250 1250 50  0001 C CNN
F 3 "" H 5250 1250 50  0001 C CNN
	1    5250 1300
	1    0    0    -1  
$EndComp
$Comp
L power:PWR_FLAG #FLG04
U 1 1 602A2F16
P 5250 900
F 0 "#FLG04" H 5250 975 50  0001 C CNN
F 1 "PWR_FLAG" H 5250 1073 50  0000 C CNN
F 2 "" H 5250 900 50  0001 C CNN
F 3 "~" H 5250 900 50  0001 C CNN
	1    5250 900 
	1    0    0    -1  
$EndComp
Wire Wire Line
	5250 900  5250 1300
Text GLabel 3950 6250 0    50   Input ~ 0
GNDAD
Text GLabel 9400 3250 3    50   Input ~ 0
GNDAD
NoConn ~ 3000 2900
$Comp
L Amplifier_Operational:LM324 U2
U 3 1 6030864D
P 3050 4800
F 0 "U2" H 3050 4433 50  0000 C CNN
F 1 "LM324" H 3050 4524 50  0000 C CNN
F 2 "" H 3000 4900 50  0001 C CNN
F 3 "http://www.ti.com/lit/ds/symlink/lm2902-n.pdf" H 3100 5000 50  0001 C CNN
	3    3050 4800
	1    0    0    1   
$EndComp
$Comp
L Amplifier_Operational:LM324 U2
U 2 1 6030B22D
P 5400 4950
F 0 "U2" H 5400 5317 50  0000 C CNN
F 1 "LM324" H 5400 5226 50  0000 C CNN
F 2 "" H 5350 5050 50  0001 C CNN
F 3 "http://www.ti.com/lit/ds/symlink/lm2902-n.pdf" H 5450 5150 50  0001 C CNN
	2    5400 4950
	1    0    0    -1  
$EndComp
$Comp
L Amplifier_Operational:LM324 U2
U 5 1 6030C8AE
P 6350 4550
F 0 "U2" H 6308 4596 50  0000 L CNN
F 1 "LM324" H 6308 4505 50  0000 L CNN
F 2 "Housings_DIP:DIP-14_W7.62mm_LongPads" H 6300 4650 50  0001 C CNN
F 3 "http://www.ti.com/lit/ds/symlink/lm2902-n.pdf" H 6400 4750 50  0001 C CNN
	5    6350 4550
	1    0    0    -1  
$EndComp
Wire Wire Line
	3650 2150 3650 3200
Connection ~ 3650 3200
Wire Wire Line
	3650 3200 3750 3200
Wire Wire Line
	3650 3200 3650 4800
Wire Wire Line
	3650 4800 3350 4800
Wire Wire Line
	3200 3200 3650 3200
Wire Wire Line
	3000 2150 3650 2150
Wire Wire Line
	2800 2550 3300 2550
Connection ~ 3300 2550
Wire Wire Line
	5850 3300 5850 4250
Wire Wire Line
	4700 3400 4700 4250
Wire Wire Line
	4950 4250 5250 4250
Wire Wire Line
	5550 4250 5850 4250
Connection ~ 5850 4250
Wire Wire Line
	5850 4250 5850 4950
Wire Wire Line
	4950 4250 4700 4250
Connection ~ 4950 4250
Connection ~ 4700 4250
Wire Wire Line
	4700 4250 4700 5050
Wire Wire Line
	4950 4550 4950 4600
$EndSCHEMATC
